date,open,close,volume
2010-06-29,3.8,4.778,93916380
2010-06-30,5.192,4.766,85971970
2010-07-01,5,4.392,41149315
2010-07-02,4.6,3.84,25709035
2010-07-06,4,3.222,34396480
2010-07-07,3.28,3.16,34624570
2010-07-08,3.228,3.492,38597695
2010-07-09,3.516,3.48,20293030
2010-07-12,3.59,3.41,11017850
2010-07-13,3.51,3.628,13400300
2010-07-14,3.588,3.968,20980550
2010-07-15,3.988,3.978,18726485
2010-07-16,4.14,4.128,13106050
2010-07-19,4.27,4.382,12432445
2010-07-20,4.37,4.06,9126155
2010-07-21,4.132,4.044,6267210
2010-07-22,4.1,4.2,4811725
2010-07-23,4.238,4.258,3270245
2010-07-26,4.3,4.19,4612265
2010-07-27,4.182,4.11,3098375
2010-07-28,4.11,4.144,2335915
2010-07-29,4.154,4.07,3079550
2010-07-30,4.04,3.988,2134150
2010-08-02,4.076,4.184,3595725
2010-08-03,4.2,4.39,6155115
2010-08-04,4.39,4.252,4603780
2010-08-05,4.308,4.09,3981900
2010-08-06,4.02,3.918,3710690
2010-08-09,3.98,3.92,4063280
2010-08-10,3.93,3.806,6406430
2010-08-11,3.738,3.58,3988250
2010-08-12,3.56,3.52,3456405
2010-08-13,3.636,3.664,3172565
2010-08-16,3.698,3.756,2431055
2010-08-17,3.792,3.83,2239405
2010-08-18,3.918,3.754,3006660
2010-08-19,3.708,3.758,2895410
2010-08-20,3.73,3.82,1487495
2010-08-23,3.818,4.026,5440145
2010-08-24,3.862,3.84,3365370
2010-08-25,3.832,3.98,2516445
2010-08-26,3.978,3.95,2168680
2010-08-27,3.95,3.94,1898210
2010-08-30,3.94,3.974,3663655
2010-08-31,3.932,3.896,1005060
2010-09-01,3.924,4.09,2478425
2010-09-02,4.074,4.212,2435300
2010-09-03,4.174,4.21,2173780
2010-09-07,4.122,4.108,1216675
2010-09-08,4.132,4.18,1441910
2010-09-09,4.2,4.142,1880985
2010-09-10,4.15,4.034,1932855
2010-09-13,4.178,4.144,1803515
2010-09-14,4.108,4.224,3273145
2010-09-15,4.196,4.396,3423790
2010-09-16,4.404,4.188,13429400
2010-09-17,4.204,4.046,5992290
2010-09-20,4.134,4.211,4737375
2010-09-21,4.178,4.154,3980000
2010-09-22,4.174,3.974,4814080
2010-09-23,3.978,3.912,3340380
2010-09-24,3.99,4.02,2894935
2010-09-27,4.08,4.106,2092985
2010-09-28,4.208,4.28,6072325
2010-09-29,4.238,4.396,9847285
2010-09-30,4.4,4.081,10983125
2010-10-01,4.138,4.12,2995355
2010-10-04,4.086,4.198,3217995
2010-10-05,4.23,4.224,1659680
2010-10-06,4.212,4.092,1567760
2010-10-07,4.114,4.086,705100
2010-10-08,4.086,4.086,1340550
2010-10-11,4.088,4.048,855970
2010-10-12,4.04,4.048,1219560
2010-10-13,4.128,4.108,1602705
2010-10-14,4.2,4.15,1473100
2010-10-15,4.178,4.108,1424200
2010-10-18,4.104,4.046,813645
2010-10-19,4.04,4.01,1225635
2010-10-20,4.032,4.13,1562220
2010-10-21,4.122,4.15,2089995
2010-10-22,4.136,4.144,805105
2010-10-25,4.188,4.17,593070
2010-10-26,4.16,4.272,3304205
2010-10-27,4.25,4.2,1782500
2010-10-28,4.278,4.238,1120950
2010-10-29,4.228,4.368,1403410
2010-11-01,4.388,4.282,2278920
2010-11-02,4.336,4.25,1612325
2010-11-03,4.256,4.354,1870995
2010-11-04,4.52,4.98,9366790
2010-11-05,4.974,4.888,5054730
2010-11-08,4.9,4.996,2547375
2010-11-09,5,4.926,4788745
2010-11-10,4.896,5.872,15305190
2010-11-11,5.72,5.607,9725470
2010-11-12,5.65,5.968,13645845
2010-11-15,6.044,6.16,13125665
2010-11-16,6.2,5.934,6738655
2010-11-17,5.998,5.898,3751705
2010-11-18,6.134,5.978,4781240
2010-11-19,6.032,6.198,5752470
2010-11-22,6.314,6.68,7649860
2010-11-23,6.658,6.914,7890350
2010-11-24,7.054,7.094,7124795
2010-11-26,7.12,7.064,1752770
2010-11-29,7.148,6.866,5727715
2010-11-30,6.742,7.066,11114790
2010-12-01,7.174,6.87,6495875
2010-12-02,6.802,6.47,10034835
2010-12-03,6.402,6.298,5802300
2010-12-06,6.27,6.062,6371875
2010-12-07,6.098,6.312,6557740
2010-12-08,6.496,6.474,3304900
2010-12-09,6.502,6.41,2029915
2010-12-10,6.41,6.304,2146905
2010-12-13,6.328,6.11,2051655
2010-12-14,6.058,5.706,8834550
2010-12-15,5.734,5.92,3714500
2010-12-16,6,6.162,3950350
2010-12-17,6.268,6.272,4069085
2010-12-20,6.328,6.34,2616600
2010-12-21,6.36,6.452,3888390
2010-12-22,6.45,6.526,4166280
2010-12-23,6.252,6.018,7785625
2010-12-27,5.6,5.1098,46511645
2010-12-28,5.17,5.282,20282945
2010-12-29,5.406,5.546,16597150
2010-12-30,5.54,5.3,10205335
2010-12-31,5.314,5.326,7089235
2011-01-03,5.368,5.324,6420420
2011-01-04,5.332,5.334,5945355
2011-01-05,5.296,5.366,7234345
2011-01-06,5.366,5.576,10306085
2011-01-07,5.6,5.648,11247700
2011-01-10,5.634,5.69,6714060
2011-01-11,5.718,5.392,8556775
2011-01-12,5.402,5.392,4823610
2011-01-13,5.392,5.244,3617610
2011-01-14,5.23,5.15,5960605
2011-01-18,5.096,5.128,8119195
2011-01-19,5.054,4.806,11857570
2011-01-20,4.806,4.524,11399790
2011-01-21,4.624,4.608,6084705
2011-01-24,4.706,4.898,8225945
2011-01-25,4.93,4.936,6357785
2011-01-26,4.942,4.95,5399335
2011-01-27,4.948,4.984,4478275
2011-01-28,4.976,4.802,5244055
2011-01-31,4.81,4.82,4151070
2011-02-01,4.862,4.782,3538955
2011-02-02,4.784,4.788,2847360
2011-02-03,4.764,4.726,2560335
2011-02-04,4.734,4.692,2719585
2011-02-07,4.652,4.614,4475055
2011-02-08,4.622,4.898,17525915
2011-02-09,4.826,4.642,13181310
2011-02-10,4.652,4.643,4180100
2011-02-11,4.65,4.65,3183010
2011-02-14,4.63,4.616,6417020
2011-02-15,4.602,4.568,4804255
2011-02-16,4.62,4.946,20579030
2011-02-17,4.926,4.72,13099710
2011-02-18,4.666,4.636,11853850
2011-02-22,4.576,4.374,10322700
2011-02-23,4.436,4.366,8028540
2011-02-24,4.356,4.506,5277250
2011-02-25,4.562,4.722,6736285
2011-02-28,4.748,4.778,5255530
2011-03-01,4.8,4.788,5531750
2011-03-02,4.764,4.804,3316470
2011-03-03,4.854,4.872,3200700
2011-03-04,4.896,4.99,7900500
2011-03-07,4.986,4.988,10167655
2011-03-08,4.976,4.932,6999255
2011-03-09,4.884,4.944,4623605
2011-03-10,4.888,4.802,5085235
2011-03-11,4.77,4.814,4653970
2011-03-14,4.764,4.65,5829855
2011-03-15,4.44,4.59,6594345
2011-03-16,4.572,4.564,5848380
2011-03-17,4.648,4.562,4612520
2011-03-18,4.638,4.592,3439115
2011-03-21,4.61,4.546,2058250
2011-03-22,4.546,4.438,2914065
2011-03-23,4.422,4.442,2113965
2011-03-24,4.428,4.466,2310800
2011-03-25,4.486,4.55,2839610
2011-03-28,4.54,4.65,5290090
2011-03-29,4.66,4.784,3777955
2011-03-30,4.822,4.742,6119385
2011-03-31,5.3,5.55,57611685
2011-04-01,5.546,5.332,14325435
2011-04-04,5.366,5.166,13046135
2011-04-05,5.18,5.34,15908635
2011-04-06,5.4,5.298,6441485
2011-04-07,5.37,5.448,14053830
2011-04-08,5.516,5.298,9731760
2011-04-11,5.306,5.054,6861000
2011-04-12,5.016,4.93,6787005
2011-04-13,5.026,4.986,6057220
2011-04-14,4.974,5.028,4916910
2011-04-15,5.13,5.116,4717255
2011-04-18,5.026,5.006,5169355
2011-04-19,5,5.032,2743465
2011-04-20,5.14,5.15,4187345
2011-04-21,5.17,5.348,6930265
2011-04-22,5.17,5.348,6930265
2011-04-25,5.34,5.278,4004195
2011-04-26,5.278,5.386,6861715
2011-04-27,5.386,5.416,4984505
2011-04-28,5.414,5.532,8224985
2011-04-29,5.538,5.52,3631700
2011-05-02,5.52,5.49,3922800
2011-05-03,5.476,5.374,4569825
2011-05-04,5.356,5.338,5235845
2011-05-05,5.356,5.338,5235845
2011-05-06,5.38,5.424,4908030
2011-05-09,5.4,5.582,4581515
2011-05-10,5.614,5.666,7678130
2011-05-11,5.64,5.414,4814825
2011-05-12,5.414,5.534,3138700
2011-05-13,5.6,5.51,3307885
2011-05-16,5.598,5.32,3778110
2011-05-17,5.4,5.192,6170780
2011-05-18,5.22,5.27,3647035
2011-05-19,5.406,5.64,13276835
2011-05-20,5.652,5.594,4212670
2011-05-23,5.524,5.364,4317740
2011-05-24,5.404,5.344,3068365
2011-05-25,5.38,5.796,23469055
2011-05-26,5.782,5.896,16684455
2011-05-27,5.88,5.91,8435345
2011-05-31,5.938,6.028,16452610
2011-06-01,6,5.7034,7651980
2011-06-02,5.704,5.752,4931470
2011-06-03,5.99,6.026,31051045
2011-06-06,6.02,5.74,11658835
2011-06-07,5.788,5.674,6110495
2011-06-08,5.688,5.424,8484680
2011-06-09,5.486,5.524,8021100
2011-06-10,5.504,5.572,7832660
2011-06-13,5.614,5.686,8568805
2011-06-14,5.708,5.72,7866550
2011-06-15,5.688,5.464,6732895
2011-06-16,5.534,5.3,9210620
2011-06-17,5.374,5.3,8569825
2011-06-20,5.258,5.202,7688545
2011-06-21,5.248,5.506,7482815
2011-06-22,5.506,5.442,7377665
2011-06-23,5.44,5.542,5849950
2011-06-24,5.528,5.513,18044290
2011-06-27,5.546,5.492,9046835
2011-06-28,5.558,5.622,4445660
2011-06-29,5.7,5.658,7308540
2011-06-30,5.7,5.826,4733270
2011-07-01,5.814,5.804,4274195
2011-07-05,5.804,5.828,4979945
2011-07-06,5.828,5.792,4634445
2011-07-07,5.828,5.946,6639105
2011-07-08,5.978,5.762,6202900
2011-07-11,5.68,5.67,4878515
2011-07-12,5.674,5.634,5227030
2011-07-13,5.686,5.728,5329710
2011-07-14,5.706,5.522,5795655
2011-07-15,5.558,5.516,3544770
2011-07-18,5.468,5.446,4261585
2011-07-19,5.516,5.578,5130240
2011-07-20,5.6,5.738,15241970
2011-07-21,5.782,5.74,5060030
2011-07-22,5.74,5.858,2919340
2011-07-25,5.802,5.698,3367455
2011-07-26,5.662,5.6,3814660
2011-07-27,5.7,5.528,4792015
2011-07-28,5.52,5.634,4693645
2011-07-29,5.56,5.634,4740635
2011-08-01,5.734,5.754,5824110
2011-08-02,5.738,5.468,7746600
2011-08-03,5.5,5.44,9006645
2011-08-04,5.302,4.95,15327980
2011-08-05,4.998,4.848,9821880
2011-08-08,4.62,4.728,13042860
2011-08-09,4.83,5.012,6666910
2011-08-10,5.088,4.764,7820735
2011-08-11,4.808,5.06,4182420
2011-08-12,5.12,5.262,5045100
2011-08-15,5.324,5.246,3692860
2011-08-16,5.226,5.22,2688440
2011-08-17,5.278,5.166,3218860
2011-08-18,5,4.852,5282845
2011-08-19,4.772,4.46,6876385
2011-08-22,4.622,4.39,4930905
2011-08-23,4.386,4.592,4344840
2011-08-24,4.62,4.774,3421190
2011-08-25,4.774,4.622,3401050
2011-08-26,4.542,4.746,3808780
2011-08-29,4.844,4.942,4016510
2011-08-30,4.9,4.926,1833295
2011-08-31,4.96,4.948,4118675
2011-09-01,4.932,4.8,4240425
2011-09-02,4.69,4.614,3851655
2011-09-06,4.5,4.588,4048800
2011-09-07,4.678,4.768,2295930
2011-09-08,4.716,4.722,2528485
2011-09-09,4.674,4.594,3346315
2011-09-12,4.5,4.576,2832855
2011-09-13,4.602,4.816,3632305
2011-09-14,4.85,4.868,4153885
2011-09-15,4.916,4.964,2812560
2011-09-16,4.956,5.16,7087870
2011-09-19,4.99,5.154,5786745
2011-09-20,5.196,5.202,5901755
2011-09-21,5.19,5.17,4937885
2011-09-22,5.03,5.126,3880010
2011-09-23,5.098,5.276,5781640
2011-09-26,5.304,5.104,4673575
2011-09-27,5.2,5.238,3372145
2011-09-28,5.2,4.918,3616030
2011-09-29,5.144,4.824,4647725
2011-09-30,4.96,4.878,6680270
2011-10-03,4.99,4.746,5115650
2011-10-04,4.658,4.732,6001070
2011-10-05,4.806,5.074,6147070
2011-10-06,5.074,5.392,8845130
2011-10-07,5.396,5.398,6557740
2011-10-10,5.462,5.576,4617080
2011-10-11,5.502,5.522,2880015
2011-10-12,5.45,5.56,5616820
2011-10-13,5.526,5.588,5219065
2011-10-14,5.6,5.61,7002345
2011-10-17,5.572,5.484,3772195
2011-10-18,5.46,5.668,4998450
2011-10-19,5.604,5.514,3964250
2011-10-20,5.488,5.468,4998235
2011-10-21,5.48,5.606,5712750
2011-10-24,5.574,5.71,4702750
2011-10-25,5.646,5.65,3271855
2011-10-26,5.638,5.596,2552395
2011-10-27,5.668,5.752,4346675
2011-10-28,5.7,5.974,6324965
2011-10-31,5.9,5.874,5669845
2011-11-01,5.678,5.776,3178875
2011-11-02,5.8,5.742,4377605
2011-11-03,6,6.492,12553015
2011-11-04,6.292,6.462,15165535
2011-11-07,6.328,6.254,6331345
2011-11-08,6.274,6.368,5839150
2011-11-09,6.174,6.176,4768280
2011-11-10,6.188,6.266,3736365
2011-11-11,6.38,6.728,19375615
2011-11-14,6.6,6.644,6628280
2011-11-15,6.584,6.786,4454525
2011-11-16,6.696,6.988,9165680
2011-11-17,6.9,6.736,6746325
2011-11-18,6.728,6.52,4513645
2011-11-21,6.488,6.352,5157620
2011-11-22,6.352,6.414,3662590
2011-11-23,6.352,6.29,2259065
2011-11-25,6.31,6.332,1197975
2011-11-28,6.4,6.512,3405620
2011-11-29,6.498,6.35,2955270
2011-11-30,6.5,6.548,3804825
2011-12-01,6.514,6.52,5150540
2011-12-02,6.566,6.66,4013590
2011-12-05,6.706,6.884,5800250
2011-12-06,6.84,6.974,4759050
2011-12-07,6.926,6.838,3371220
2011-12-08,6.168,6.178,16529725
2011-12-09,6.108,6.208,6197220
2011-12-12,6.088,6.082,3793285
2011-12-13,6.114,5.89,4970075
2011-12-14,5.9,5.706,5819200
2011-12-15,5.772,5.724,3501305
2011-12-16,5.758,5.6,5148025
2011-12-19,5.618,5.55,4934760
2011-12-20,5.61,5.58,4221905
2011-12-21,5.582,5.514,8529035
2011-12-22,5.52,5.554,5049010
2011-12-23,5.6,5.58,2956950
2011-12-27,5.532,5.714,3887015
2011-12-28,5.798,5.702,2875690
2011-12-29,5.718,5.746,2440750
2011-12-30,5.698,5.712,1699300
2012-01-03,5.788,5.616,4640260
2012-01-04,5.642,5.542,3150180
2012-01-05,5.552,5.424,5027160
2012-01-06,5.44,5.382,4931435
2012-01-09,5.4,5.45,4484755
2012-01-10,5.488,5.524,3358660
2012-01-11,5.524,5.646,3361195
2012-01-12,5.696,5.65,3646500
2012-01-13,5.68,4.558,27532195
2012-01-17,5.332,5.32,23261930
2012-01-18,5.338,5.362,6300915
2012-01-19,5.438,5.352,6231110
2012-01-20,5.38,5.32,3311445
2012-01-23,5.362,5.354,2972665
2012-01-24,5.326,5.484,4289570
2012-01-25,5.454,5.594,3055560
2012-01-26,5.614,5.788,6355140
2012-01-27,5.7,5.866,3741805
2012-01-30,5.898,5.914,3644895
2012-01-31,5.98,5.814,4783565
2012-02-01,5.814,5.916,2615845
2012-02-02,5.944,6.05,4028050
2012-02-03,6.082,6.23,3822090
2012-02-06,6.22,6.36,3260805
2012-02-07,6.36,6.32,5107515
2012-02-08,6.32,6.386,3118130
2012-02-09,6.4,6.516,6389840
2012-02-10,6.452,6.22,9370695
2012-02-13,6.31,6.298,5789290
2012-02-14,6.348,6.634,9056825
2012-02-15,6.62,6.72,13822380
2012-02-16,6.7,6.836,11098180
2012-02-17,6.798,6.994,6883225
2012-02-21,6.974,6.9,5678940
2012-02-22,6.9,6.844,8274925
2012-02-23,6.798,6.906,4101725
2012-02-24,6.846,6.75,4799330
2012-02-27,6.682,6.724,3029765
2012-02-28,6.728,6.762,3060915
2012-02-29,6.762,6.682,2678420
2012-03-01,6.702,6.882,3517175
2012-03-02,6.88,6.808,2749855
2012-03-05,6.87,6.754,2334690
2012-03-06,6.65,6.622,2868745
2012-03-07,6.624,6.624,1824155
2012-03-08,6.622,6.614,3166335
2012-03-09,6.64,6.948,7767115
2012-03-12,6.938,7.202,9822600
2012-03-13,7.302,7.218,5008215
2012-03-14,7.2,7.058,4257320
2012-03-15,7.056,7,2857980
2012-03-16,6.98,7.064,3646180
2012-03-19,7.052,6.996,5077930
2012-03-20,6.996,6.992,2835005
2012-03-21,6.988,7.03,3035515
2012-03-22,6.994,6.88,2611765
2012-03-23,6.852,6.816,5852835
2012-03-26,7.118,7.48,15704455
2012-03-27,7.432,7.588,12700265
2012-03-28,7.556,7.57,4774850
2012-03-29,7.638,7.466,3981675
2012-03-30,7.504,7.448,4431560
2012-04-02,7.466,7.316,5142520
2012-04-03,7.34,7.602,5520750
2012-04-04,7.054,7,22414080
2012-04-05,7.02,6.896,7546890
2012-04-09,6.82,6.63,8279025
2012-04-10,6.63,6.492,9238345
2012-04-11,6.648,6.618,5527235
2012-04-12,6.754,6.688,5170770
2012-04-13,6.788,6.718,3247900
2012-04-16,6.682,6.45,5498755
2012-04-17,6.486,6.448,5577690
2012-04-18,6.418,6.532,4115480
2012-04-19,6.55,6.632,3874390
2012-04-20,6.628,6.632,4108870
2012-04-23,6.572,6.388,4453575
2012-04-24,6.364,6.364,3372335
2012-04-25,6.414,6.582,3560665
2012-04-26,6.592,6.698,2138095
2012-04-27,6.72,6.668,2951025
2012-04-30,6.654,6.626,2069740
2012-05-01,6.626,6.756,3294735
2012-05-02,6.7,6.788,2486255
2012-05-03,6.782,6.492,4210535
2012-05-04,6.464,6.366,6237430
2012-05-07,6.392,6.494,5789845
2012-05-08,6.5,6.038,15485900
2012-05-09,6.06,6.012,9739140
2012-05-10,6.51,6.592,27781505
2012-05-11,6.498,6.45,6106025
2012-05-14,6.384,6.012,6904210
2012-05-15,6.052,5.886,7928410
2012-05-16,5.916,5.836,6285965
2012-05-17,5.86,5.714,5745215
2012-05-18,5.674,5.512,8082435
2012-05-21,5.516,5.754,7375850
2012-05-22,6.02,6.158,11830850
2012-05-23,6.112,6.204,6101745
2012-05-24,6.25,6.064,5377600
2012-05-25,6.032,5.962,3785045
2012-05-29,6.002,6.338,8249585
2012-05-30,6.284,6.082,6535705
2012-05-31,6.014,5.9,5593505
2012-06-01,5.706,5.63,4428550
2012-06-04,5.606,5.576,5154170
2012-06-05,5.568,5.582,3154425
2012-06-06,5.64,5.844,4552540
2012-06-07,5.962,5.786,2460075
2012-06-08,5.772,6.016,4406045
2012-06-11,6.062,5.824,3179735
2012-06-12,5.846,5.932,2844970
2012-06-13,5.91,5.954,4221855
2012-06-14,6.036,5.878,4360805
2012-06-15,5.878,5.982,3233685
2012-06-18,5.988,6.368,6283980
2012-06-19,6.404,6.418,4555145
2012-06-20,6.7,6.756,17111710
2012-06-21,6.852,6.438,9459475
2012-06-22,6.52,6.757,15237260
2012-06-25,6.788,6.622,7515930
2012-06-26,6.41,6.322,13069245
2012-06-27,6.38,6.392,5235970
2012-06-28,6.38,6.282,4570200
2012-06-29,6.56,6.258,5628520
2012-07-02,6.27,6.08,6577670
2012-07-03,6.12,6.132,4735640
2012-07-05,6.162,6.246,6269330
2012-07-06,6.198,6.198,3923305
2012-07-09,6.188,6.298,4552045
2012-07-10,6.308,6.254,3791760
2012-07-11,6.314,6.302,3192580
2012-07-12,6.258,6.54,5628350
2012-07-13,6.594,6.85,6524560
2012-07-16,6.864,7.192,8719540
2012-07-17,7,6.67,12847315
2012-07-18,6.288,6.43,14410420
2012-07-19,6.544,6.454,7179390
2012-07-20,6.414,6.358,7842330
2012-07-23,6.21,6.132,6933715
2012-07-24,6.132,5.968,7503380
2012-07-25,5.984,5.79,14220325
2012-07-26,5.98,5.626,11315025
2012-07-27,5.742,5.902,8364840
2012-07-30,5.902,5.47,10330200
2012-07-31,5.508,5.484,7875300
2012-08-01,5.598,5.25,7961085
2012-08-02,5.25,5.22,6525080
2012-08-03,5.38,5.454,6047350
2012-08-06,5.51,5.654,7640845
2012-08-07,5.754,6.05,11936520
2012-08-08,5.98,5.818,6544475
2012-08-09,5.904,5.882,3362920
2012-08-10,5.862,5.988,3536950
2012-08-13,5.938,6.234,4350250
2012-08-14,6.15,5.884,3966680
2012-08-15,5.878,5.88,2626925
2012-08-16,5.906,6.06,3344865
2012-08-17,6.058,6.002,2540610
2012-08-20,6.03,5.902,5895040
2012-08-21,5.916,5.822,3807580
2012-08-22,5.802,5.99,3877450
2012-08-23,6,6.146,7354870
2012-08-24,6.012,5.9,7150055
2012-08-27,5.914,5.664,6751625
2012-08-28,5.68,5.738,7013280
2012-08-29,5.698,5.682,4194415
2012-08-30,5.72,5.682,3281535
2012-08-31,5.722,5.704,2698680
2012-09-04,5.704,5.628,3762480
2012-09-05,5.602,5.588,3196135
2012-09-06,5.6,5.71,4208215
2012-09-07,5.71,5.87,4765755
2012-09-10,5.84,5.474,7420075
2012-09-11,5.552,5.56,5074355
2012-09-12,5.58,5.656,5726670
2012-09-13,5.714,5.896,7431795
2012-09-14,6,6.078,7683345
2012-09-17,6.47,6.508,16064955
2012-09-18,6.376,6.268,8942400
2012-09-19,6.2,6.21,5242285
2012-09-20,6.186,6.18,4561860
2012-09-21,6.22,6.004,9350850
2012-09-24,5.902,6.132,6510020
2012-09-25,5.728,5.532,28424760
2012-09-26,5.532,5.508,7636600
2012-09-27,5.564,5.698,8792765
2012-09-28,5.74,5.856,21716690
2012-10-01,5.9,5.832,4421525
2012-10-02,5.856,5.96,3644845
2012-10-03,5.95,5.86,5276440
2012-10-04,6,5.88,7706035
2012-10-05,5.94,5.778,4693350
2012-10-08,5.772,5.85,4450030
2012-10-09,5.824,5.674,5967395
2012-10-10,5.678,5.68,2525315
2012-10-11,5.788,5.664,2252855
2012-10-12,5.664,5.528,4937675
2012-10-15,5.604,5.466,7345835
2012-10-16,5.534,5.612,2396240
2012-10-17,5.65,5.7638,3339815
2012-10-18,5.798,5.608,3704735
2012-10-19,5.566,5.548,5136510
2012-10-22,5.598,5.57,2350990
2012-10-23,5.476,5.678,3746365
2012-10-24,5.704,5.484,5081840
2012-10-25,5.56,5.504,2888430
2012-10-26,5.506,5.476,2386525
2012-10-30,5.506,5.476,2386525
2012-10-31,5.54,5.6263,3875710
2012-11-01,5.65,5.8491,5120270
2012-11-02,5.854,5.7836,5151325
2012-11-05,5.96,6.3,10245590
2012-11-06,6.122,6.23,11619715
2012-11-07,6.2,6.308,8577085
2012-11-08,6.202,6.262,6369930
2012-11-09,6.12,6.064,4315140
2012-11-12,6.058,6.214,2788255
2012-11-13,6.258,6.3229,4991315
2012-11-14,6.392,6.276,4356575
2012-11-15,6.26,6.164,4919705
2012-11-16,6.23,6.368,4543250
2012-11-19,6.414,6.584,6962740
2012-11-20,6.56,6.6,4612135
2012-11-21,6.522,6.494,4815665
2012-11-23,6.52,6.426,2151060
2012-11-26,6.42,6.454,2481095
2012-11-27,6.426,6.43,4553850
2012-11-28,6.4,6.646,7626495
2012-11-29,6.688,6.738,5516575
2012-11-30,6.726,6.764,7101420
2012-12-03,6.778,6.924,10428765
2012-12-04,6.816,6.78,6321055
2012-12-05,6.764,6.742,3307430
2012-12-06,6.764,6.78,3301985
2012-12-07,6.86,6.834,3322930
2012-12-10,6.886,6.914,4648755
2012-12-11,6.92,7.056,7862955
2012-12-12,7.042,7.052,10319385
2012-12-13,7.052,6.722,10756120
2012-12-14,6.772,6.762,5114715
2012-12-17,6.754,6.88,4124045
2012-12-18,6.852,6.918,7772180
2012-12-19,6.95,6.922,6493655
2012-12-20,6.902,6.886,4605970
2012-12-21,6.788,6.8,7461530
2012-12-24,6.728,6.856,1878980
2012-12-26,6.792,6.718,3008920
2012-12-27,6.7,6.738,2805425
2012-12-28,6.676,6.644,2070675
2012-12-31,6.6,6.774,2974230
2013-01-02,7,7.072,5973550
2013-01-03,7.036,6.954,3709705
2013-01-04,6.96,6.88,3369965
2013-01-07,6.96,6.868,2209545
2013-01-08,6.9,6.736,6419925
2013-01-09,6.802,6.728,3489895
2013-01-10,6.774,6.706,4612025
2013-01-11,6.808,6.582,7816370
2013-01-14,6.616,6.652,4625090
2013-01-15,6.622,6.78,8121945
2013-01-16,6.77,6.82,6890690
2013-01-17,6.832,6.876,7183020
2013-01-18,6.948,6.904,17775370
2013-01-21,6.948,6.904,17775370
2013-01-22,6.912,7.038,9600655
2013-01-23,7.004,7.2,7821030
2013-01-24,7.2,7.398,9851945
2013-01-25,7.4,7.396,6438515
2013-01-28,7.372,7.606,9929960
2013-01-29,7.604,7.59,7132515
2013-01-30,7.57,7.504,4840490
2013-01-31,7.574,7.502,4506590
2013-02-01,7.634,7.66,5502950
2013-02-04,7.68,7.548,5639945
2013-02-05,7.6,7.626,6550960
2013-02-06,7.618,7.834,9465740
2013-02-07,7.838,7.896,5987605
2013-02-08,7.89,7.848,5698665
2013-02-11,7.596,7.684,16331240
2013-02-12,7.69,7.578,11306230
2013-02-13,7.66,7.69,4835510
2013-02-14,7.728,7.66,4953200
2013-02-15,7.7,7.408,10091345
2013-02-18,7.7,7.408,10091345
2013-02-19,7.472,7.856,13506700
2013-02-20,7.86,7.708,15609550
2013-02-21,7.298,7.032,45191060
2013-02-22,7.144,7.222,12739155
2013-02-25,7.23,6.876,14453860
2013-02-26,6.892,6.886,13815250
2013-02-27,6.882,7.02,9795645
2013-02-28,7.178,6.966,9824465
2013-03-01,7,6.93,7733000
2013-03-04,6.954,7.116,8788300
2013-03-05,7.2,7.33,10434845
2013-03-06,7.402,7.538,5749625
2013-03-07,7.546,7.646,5791770
2013-03-08,7.612,7.694,4560260
2013-03-11,7.774,7.82,7897200
2013-03-12,7.78,7.824,6375310
2013-03-13,7.8,7.796,4109930
2013-03-14,7.78,7.37,10122295
2013-03-15,7.328,7.058,16398885
2013-03-18,7.06,7.03,6581680
2013-03-19,7.05,7.016,5492375
2013-03-20,7.052,7.19,7118420
2013-03-21,7.19,7.202,5731435
2013-03-22,7.24,7.324,2231175
2013-03-25,7.42,7.506,11896770
2013-03-26,7.596,7.572,9040685
2013-03-27,7.588,7.632,6481415
2013-03-28,7.646,7.578,5793260
2013-03-29,7.646,7.578,5793260
2013-04-01,8.448,8.786,70529365
2013-04-02,8.72,8.868,33261870
2013-04-03,8.62,8.22,28224975
2013-04-04,8.222,8.402,11324335
2013-04-05,8.3,8.274,7761945
2013-04-08,8.394,8.366,8395005
2013-04-09,8.36,8.1,8480180
2013-04-10,8.14,8.372,10605440
2013-04-11,8.412,8.718,17240405
2013-04-12,8.65,8.75,15746860
2013-04-15,8.7,8.66,8429920
2013-04-16,8.838,9.118,15902190
2013-04-17,9.1,9.09,10592140
2013-04-18,9.196,9.394,16843500
2013-04-19,9.596,9.566,15060680
2013-04-22,9.72,10.038,19696635
2013-04-23,10.2,10.202,18687750
2013-04-24,10.18,10.086,13150540
2013-04-25,10.1,10.4,13981035
2013-04-26,10.626,10.24,18112150
2013-04-29,10.352,10.988,18211030
2013-04-30,11.2,10.798,27619740
2013-05-01,11.13,10.656,13713890
2013-05-02,10.77,10.822,15261665
2013-05-03,11.182,10.91,16897015
2013-05-06,11.278,11.9,21863995
2013-05-07,12.4,11.102,49972745
2013-05-08,11.5,11.1573,33849295
2013-05-09,14,13.88,143024850
2013-05-10,13.93,15.3528,125432150
2013-05-13,16.124,17.56,112084075
2013-05-14,18.878,16.648,185819490
2013-05-15,16.246,16.9684,84393500
2013-05-16,19,18.4496,108070010
2013-05-17,18.5,18.3,95042250
2013-05-20,18.224,17.988,41741655
2013-05-21,17.71,17.518,45008815
2013-05-22,17.274,17.448,42868880
2013-05-23,17,18.546,60221285
2013-05-24,18.484,19.416,80620970
2013-05-28,20.398,22.0668,98459120
2013-05-29,22.78,20.9258,125497400
2013-05-30,20.492,20.99,80702770
2013-05-31,21.174,19.552,75859645
2013-06-03,19.5,18.518,95717375
2013-06-04,18.5,18.968,44280225
2013-06-05,18.732,19.074,61123655
2013-06-06,19.076,19.47,47572030
2013-06-07,19.6,20.408,53586085
2013-06-10,19.864,20.01,46171075
2013-06-11,19.684,18.894,36980200
2013-06-12,19.36,19.546,45987615
2013-06-13,19.8,19.636,29825620
2013-06-14,20,20.06,32837105
2013-06-17,20.72,20.44,35378200
2013-06-18,20.35,20.678,44017815
2013-06-19,20.412,20.936,42943670
2013-06-20,20.93,20.13,50556105
2013-06-21,20.732,19.91,58592635
2013-06-24,19.3,20.298,35635100
2013-06-25,20.62,20.48,29254160
2013-06-26,20.756,21.144,33050795
2013-06-27,21.34,21.85,43754130
2013-06-28,21.718,21.472,28752155
2013-07-01,21.872,23.4358,54518005
2013-07-02,23.602,23.564,60351575
2013-07-03,23.6,23.048,24033310
2013-07-04,23.6,23.048,24033310
2013-07-05,23.75,24.018,34137485
2013-07-08,24.386,24.322,39104080
2013-07-09,24.924,24.69,43016035
2013-07-10,24.638,24.454,28000060
2013-07-11,24.968,25.122,37434790
2013-07-12,25.1,25.98,56745930
2013-07-15,26.598,25.452,49621680
2013-07-16,25.248,21.81,161859340
2013-07-17,21.242,24.05,130144735
2013-07-18,24.2,23.806,57036790
2013-07-19,23.7,23.936,29457195
2013-07-22,24.072,24.486,49024050
2013-07-23,24.804,24.548,38702345
2013-07-24,24.894,24.34,34356860
2013-07-25,24.08,24.814,26435720
2013-07-26,25.632,25.878,48203515
2013-07-29,25.864,26.924,48430360
2013-07-30,26.986,26.348,65651335
2013-07-31,26.514,26.856,31758185
2013-08-01,27,27.11,26617995
2013-08-02,27,27.6,31349190
2013-08-05,28.02,28.936,51003145
2013-08-06,28.982,28.43,46305460
2013-08-07,28.378,26.846,91060690
2013-08-08,30.898,30.696,136233815
2013-08-09,30.6,30.6,44680145
2013-08-12,29.886,29.476,74560875
2013-08-13,29.9,29.086,43744315
2013-08-14,28.544,27.872,58468715
2013-08-15,27.298,27.934,50944385
2013-08-16,28.4,28.4,35540430
2013-08-19,28.69,28.98,40188200
2013-08-20,29.758,29.916,32090540
2013-08-21,30,29.572,31331310
2013-08-22,29.844,31.42,52961955
2013-08-23,31.4,32.3678,64659210
2013-08-26,33.088,32.844,120855480
2013-08-27,32.5,33.402,87834080
2013-08-28,33.85,33.29,73700030
2013-08-29,32.874,33.212,47228600
2013-08-30,33.274,33.8,55141790
2013-09-03,34.68,33.788,60305500
2013-09-04,33.96,34.1244,57378235
2013-09-05,34.056,33.986,33466010
2013-09-06,33.706,33.394,43098150
2013-09-09,32.624,32.14,71722365
2013-09-10,32.29,33.274,44838930
2013-09-11,33.272,32.704,29162380
2013-09-12,32.8,32.986,30799965
2013-09-13,32.514,33.108,27049440
2013-09-16,33.6,33.316,37962990
2013-09-17,33.114,33.246,27503595
2013-09-18,33.414,33.2436,27198075
2013-09-19,34.15,35.584,77972840
2013-09-20,35.78,36.678,67008445
2013-09-23,36.896,36.222,40959205
2013-09-24,35.892,36.466,31412155
2013-09-25,36.68,37.0476,41263105
2013-09-26,37.35,37.728,33107960
2013-09-27,37.504,38.18,29619405
2013-09-30,37.8,38.674,44672705
2013-10-01,38.8,38.6,38807145
2013-10-02,37.718,36.19,103877050
2013-10-03,35,34.662,119082520
2013-10-04,35.26,36.196,72069825
2013-10-07,36.492,36.614,57427895
2013-10-08,36.884,34.946,68786090
2013-10-09,34.932,33.756,76582405
2013-10-10,34.618,34.586,44419550
2013-10-11,34.458,35.74,41555430
2013-10-14,34.988,35.944,38848150
2013-10-15,37.056,36.788,54892680
2013-10-16,36.942,36.712,41026835
2013-10-17,36.708,36.5604,33524840
2013-10-18,36.83,36.68,29654075
2013-10-21,36.656,34.52,57660655
2013-10-22,34.1,34.308,56973375
2013-10-23,33.782,32.9,66638695
2013-10-24,33,34.63,54128335
2013-10-25,34.842,33.932,37977290
2013-10-28,34.036,32.572,39208635
2013-10-29,32.552,32.894,70558685
2013-10-30,32.926,31.844,42008780
2013-10-31,31.134,31.988,46702275
2013-11-01,32.6,32.434,35902915
2013-11-04,33,35.04,65601870
2013-11-05,35.97,35.362,112335505
2013-11-06,31,30.232,155358630
2013-11-07,28.816,27.9544,111423720
2013-11-08,27.166,27.59,112389305
2013-11-11,28.2,28.9396,69987955
2013-11-12,28.938,27.56,74925810
2013-11-13,28.168,27.74,63291360
2013-11-14,27.784,27.52,61018500
2013-11-15,27.3,27.09,49500880
2013-11-18,27.054,24.316,115691210
2013-11-19,23.898,25.218,99080770
2013-11-20,25.282,24.222,69247770
2013-11-21,24.578,24.42,59519015
2013-11-22,24.316,24.276,55520730
2013-11-25,24.9,24.168,51376740
2013-11-26,23.876,24.1,69427610
2013-11-27,24.262,25.388,61838170
2013-11-29,24.262,25.388,61838170
2013-12-02,25.27,24.834,38756055
2013-12-03,26.536,28.94,128412020
2013-12-04,28.864,27.79,65738440
2013-12-05,28.038,28.096,46442075
2013-12-06,28.302,27.472,39547980
2013-12-09,27.4,28.32,45307425
2013-12-10,27.982,28.438,53741170
2013-12-11,28.376,27.93,35689210
2013-12-12,27.94,29.494,53838955
2013-12-13,29.614,29.5308,52998875
2013-12-16,29.7,29.588,33376380
2013-12-17,29.38,30.492,52474845
2013-12-18,30.448,29.596,57909485
2013-12-19,29.38,28.144,63793065
2013-12-20,28.378,28.648,37112685
2013-12-23,28.97,28.71,26927530
2013-12-24,30,30.282,49707425
2013-12-26,31,31.1,35647630
2013-12-27,31.06,30.224,27345320
2013-12-30,30.224,30.488,22360380
2013-12-31,30.466,30.0858,21333550
2014-01-02,29.96,30.02,30976775
2014-01-03,30,29.912,23494195
2014-01-06,30,29.4,26836600
2014-01-07,29.516,29.872,25209030
2014-01-08,29.77,30.256,30833370
2014-01-09,30.5,29.506,26944525
2014-01-10,29.692,29.144,37252655
2014-01-13,29.126,27.868,31623235
2014-01-14,28.1,32.254,139679140
2014-01-15,33.656,32.826,102444905
2014-01-16,32.5,34.194,59910495
2014-01-17,34.038,34.002,46080140
2014-01-21,34.248,35.336,48728825
2014-01-22,35.58,35.712,35183790
2014-01-23,35.446,36.3,39497575
2014-01-24,35.57,34.92,38556480
2014-01-27,35,33.924,43688865
2014-01-28,34.3,35.676,30641185
2014-01-29,35.06,35.046,29784085
2014-01-30,35.6,36.568,42876050
2014-01-31,35.77,36.282,32564755
2014-02-03,36.578,35.422,33893045
2014-02-04,36.002,35.746,23454415
2014-02-05,35.66,34.884,36379760
2014-02-06,35.272,35.676,29239765
2014-02-07,36.202,37.306,44820270
2014-02-10,37.868,39.312,64946430
2014-02-11,39.794,39.324,53672360
2014-02-12,39.156,39.064,25906565
2014-02-13,38.668,39.926,40870245
2014-02-14,39.6,39.646,30867310
2014-02-18,41.02,40.74,46779355
2014-02-19,40.74,38.728,82099495
2014-02-20,42.998,41.994,90111310
2014-02-21,42.238,41.92,39144905
2014-02-24,41.716,43.53,41515665
2014-02-25,46,49.6,163985000
2014-02-26,51.716,50.6,123855970
2014-02-27,52.294,50.508,89853535
2014-02-28,50,48.962,73063465
2014-03-03,47.358,50.112,65546515
2014-03-04,51.682,50.968,43826960
2014-03-05,51.344,50.532,29733680
2014-03-06,50.828,50.588,36873595
2014-03-07,50.588,49.242,39092325
2014-03-10,48.54,47.768,38728755
2014-03-11,47.232,46.882,44181745
2014-03-12,46.226,48.298,48819555
2014-03-13,48.758,47.558,31181625
2014-03-14,47.058,46.194,41448665
2014-03-17,47,46.796,29562960
2014-03-18,47.39,48.008,31211745
2014-03-19,48.278,47.168,25356635
2014-03-20,47.202,46.982,19089525
2014-03-21,47.2,45.778,41136555
2014-03-24,45.95,44.034,56664735
2014-03-25,44.828,44.088,39326875
2014-03-26,44.312,42.592,34536530
2014-03-27,42.442,41.464,47526535
2014-03-28,42.56,42.474,48423805
2014-03-31,43.346,41.69,41900115
2014-04-01,41.804,43.394,36857110
2014-04-02,44,46.058,53911255
2014-04-03,46.06,45.08,54618670
2014-04-04,45.202,42.445,56541980
2014-04-07,41.162,41.504,49277390
2014-04-08,42,43.092,34446480
2014-04-09,43.404,43.386,25789615
2014-04-10,43.364,40.838,36057460
2014-04-11,40.15,40.756,45356500
2014-04-14,41.52,39.618,38515155
2014-04-15,39.818,38.782,68335355
2014-04-16,39.4,39.822,36026595
2014-04-17,39.922,39.624,29647530
2014-04-21,39.416,40.876,26332450
2014-04-22,41.272,43.728,49046665
2014-04-23,43.266,41.598,36478045
2014-04-24,42.16,41.572,27523840
2014-04-25,40.4,39.97,34983290
2014-04-28,39.998,39.702,35209915
2014-04-29,39.642,41.384,28936845
2014-04-30,40.72,41.578,22217265
2014-05-01,41.416,41.546,27223350
2014-05-02,41.72,42.182,20456970
2014-05-05,41.89,43.322,25761715
2014-05-06,43.316,41.456,28183625
2014-05-07,41.928,40.27,50896455
2014-05-08,36.45,35.718,100282955
2014-05-09,36,36.452,42475795
2014-05-12,36.774,36.934,35021650
2014-05-13,36.772,38.032,35486210
2014-05-14,37.79,38.124,27074725
2014-05-15,37.996,37.718,30230695
2014-05-16,37.8,38.312,22446560
2014-05-19,38.144,39.218,22858300
2014-05-20,39.388,39.06,27769385
2014-05-21,39.204,39.89,26453775
2014-05-22,40,40.976,31081275
2014-05-23,40.906,41.46,20054655
2014-05-27,41.704,42.312,26733940
2014-05-28,42,42.048,27481390
2014-05-29,42.114,42.048,18472980
2014-05-30,42.12,41.554,27930340
2014-06-02,41.466,40.94,23340575
2014-06-03,40.698,40.988,19330910
2014-06-04,40.87,40.798,17172510
2014-06-05,40.894,41.38,20296425
2014-06-06,41.95,41.6342,15374500
2014-06-09,41.59,41.062,14065330
2014-06-10,40.894,40.46,17611680
2014-06-11,40.3,40.894,19902455
2014-06-12,41.02,40.704,29985720
2014-06-13,40.878,41.284,17733945
2014-06-16,41.262,44.922,66231760
2014-06-17,44.8,46.334,66524535
2014-06-18,46.282,45.424,34735265
2014-06-19,45.776,45.558,44009535
2014-06-20,45.664,45.918,24540385
2014-06-23,45.902,47.444,39000945
2014-06-24,47.756,46.5,40405545
2014-06-25,46.618,47.3782,29016285
2014-06-26,47.434,47.12,25614860
2014-06-27,46.938,47.812,28193935
2014-06-30,47.91,48.012,24168010
2014-07-01,48.492,47.944,21706210
2014-07-02,48.132,45.885,40175360
2014-07-03,46.288,45.85,25833580
2014-07-07,45.482,44.532,29505400
2014-07-08,43.75,43.814,39230825
2014-07-09,44.26,44.612,20588645
2014-07-10,43.468,43.892,24326230
2014-07-11,44.08,43.626,16535565
2014-07-14,43.998,45.34,36042865
2014-07-15,45.346,43.916,28660155
2014-07-16,44.364,43.432,20255485
2014-07-17,43.232,43.08,23254780
2014-07-18,43.19,44.004,21303090
2014-07-21,43.45,44.108,19126255
2014-07-22,44.438,43.916,13662425
2014-07-23,44.002,44.498,15443655
2014-07-24,44.65,44.708,16242050
2014-07-25,44.544,44.714,15451915
2014-07-28,44.85,44.964,32588055
2014-07-29,45.322,45.002,16935935
2014-07-30,44.384,45.784,24639115
2014-07-31,45.852,44.66,38745290
2014-08-01,45.218,46.654,59490665
2014-08-04,46.876,47.704,29837030
2014-08-05,47.494,47.698,26942905
2014-08-06,47.78,49.786,46246325
2014-08-07,50.024,50.478,37394630
2014-08-08,50.232,49.626,25495305
2014-08-11,51.096,51.864,40506380
2014-08-12,51.616,51.992,31952060
2014-08-13,52.402,52.062,34663140
2014-08-14,52.498,52.276,20633170
2014-08-15,52.296,52.402,19339370
2014-08-18,52.65,51.988,29246155
2014-08-19,51.774,51.352,26700680
2014-08-20,50.934,51.142,15139315
2014-08-21,51.304,50.868,14596205
2014-08-22,50.908,51.356,14184795
2014-08-25,51.638,52.51,21590265
2014-08-26,52.996,52.348,19112860
2014-08-27,52.7,52.65,14952660
2014-08-28,52.378,52.772,14273685
2014-08-29,53.74,53.94,32269790
2014-09-01,55.1,53.94,32269790
2014-09-02,55.1,56.824,49261755
2014-09-03,57.534,56.238,33898675
2014-09-04,56.802,57.208,41708745
2014-09-05,56.51,55.478,55880835
2014-09-08,55.524,56.422,27525200
2014-09-09,56.598,55.696,22839790
2014-09-10,55.9,56.22,18929940
2014-09-11,56.092,56.062,18842920
2014-09-12,56.1,55.84,16641510
2014-09-15,54.874,50.772,82324760
2014-09-16,51.03,52.148,41519860
2014-09-17,52.482,52.276,25899615
2014-09-18,52.672,52.764,18496570
2014-09-19,51.598,51.864,34058570
2014-09-22,51,50.006,41114815
2014-09-23,49.044,50.082,28300240
2014-09-24,50.224,50.428,18771880
2014-09-25,50.504,49.39,24218560
2014-09-26,49.65,49.32,18994205
2014-09-29,48.8,49.052,24273435
2014-09-30,49.384,48.536,21240635
2014-10-01,48.44,48.048,29732550
2014-10-02,50.04,50.284,45010005
2014-10-03,50.612,51.042,27043325
2014-10-06,51.826,52.124,38595275
2014-10-07,51.706,51.914,22457845
2014-10-08,52.02,51.856,25313075
2014-10-09,52.45,51.402,36806580
2014-10-10,48.928,47.382,64491375
2014-10-13,47.714,44.918,56382760
2014-10-14,45.65,45.412,35561695
2014-10-15,44,45.94,45758240
2014-10-16,43.944,45.27,27022825
2014-10-17,46.676,45.496,52759250
2014-10-20,45.344,46.094,17498430
2014-10-21,46.854,47.068,20651725
2014-10-22,46.638,46.22,20616985
2014-10-23,46.931,47.058,17499410
2014-10-24,46.931,47.058,17499410
2014-10-27,46.85,44.334,47766740
2014-10-28,45.92,48.554,52581485
2014-10-29,48.226,47.62,24838200
2014-10-30,47.628,47.732,16141855
2014-10-31,48.502,48.34,18876635
2014-11-03,48.6,48.518,21036340
2014-11-04,48.098,47.786,18412860
2014-11-05,48.2,46.194,45229625
2014-11-06,46.898,48.244,76773585
2014-11-07,48.438,48.04,25805115
2014-11-10,47.822,48.386,22886040
2014-11-11,48.51,50.216,39762825
2014-11-12,49.944,49.82,29354090
2014-11-13,50.124,50.34,31180180
2014-11-14,50,51.736,30505725
2014-11-17,51.498,50.796,20128475
2014-11-18,51.172,51.54,22371470
2014-11-19,50.122,49.548,39592430
2014-11-20,49.59,49.742,17936100
2014-11-21,50.442,48.556,37425295
2014-11-24,49.04,49.344,23948540
2014-11-25,49.47,49.618,15799020
2014-11-26,49.668,49.688,9909095
2014-11-27,49.668,49.688,9909095
2014-11-28,49.07,48.904,10598440
2014-12-01,48.232,46.328,43096755
2014-12-02,46.914,46.286,29435230
2014-12-03,45.25,45.86,26538665
2014-12-04,45.72,45.656,19396040
2014-12-05,45.734,44.742,30318095
2014-12-08,44.308,42.872,46128095
2014-12-09,41.868,43.378,47157510
2014-12-10,42.826,41.968,36570695
2014-12-11,42.106,41.776,33471990
2014-12-12,40.964,41.4,35868910
2014-12-15,41.858,40.808,26091260
2014-12-16,40.178,39.562,42130525
2014-12-17,38.612,41.164,36839170
2014-12-18,42.476,43.652,37416745
2014-12-19,44.038,43.858,34552305
2014-12-22,44,44.52,24034585
2014-12-23,44.762,44.194,22566605
2014-12-24,43.954,44.452,6667590
2014-12-26,44.302,45.564,16635080
2014-12-29,45.38,45.142,14059140
2014-12-30,44.798,44.446,14516210
2014-12-31,44.618,44.482,12010485
2015-01-02,44.574,43.862,23822215
2015-01-05,42.91,42.018,26842385
2015-01-06,42.012,42.256,31309680
2015-01-07,42.67,42.19,14841950
2015-01-08,42.562,42.123,17212545
2015-01-09,41.784,41.332,23341475
2015-01-12,40.61,40.442,29751400
2015-01-13,40.664,40.85,22386600
2015-01-14,37.166,38.538,57759275
2015-01-15,38.898,38.374,26082620
2015-01-16,38.14,38.614,18015790
2015-01-20,38.774,38.386,22515910
2015-01-21,37.91,39.314,20765215
2015-01-22,39.4,40.324,20584525
2015-01-23,40.058,40.258,17211855
2015-01-26,40.366,41.31,16172610
2015-01-27,40.884,41.196,13905120
2015-01-28,41.222,39.874,15748030
2015-01-29,40.214,41.04,17740530
2015-01-30,40.792,40.72,15034795
2015-02-02,40.794,42.188,20745930
2015-02-03,42.644,43.672,24131220
2015-02-04,43.658,43.71,16526885
2015-02-05,43.976,44.198,17614735
2015-02-06,44.4,43.472,16219655
2015-02-09,43.076,43.496,17362115
2015-02-10,43.51,43.258,26952710
2015-02-11,42.442,42.56,48845510
2015-02-12,38.714,40.576,78248035
2015-02-13,40.58,40.754,30955015
2015-02-17,41.14,40.87,19898235
2015-02-18,40.834,40.892,13567990
2015-02-19,41,42.341,25770740
2015-02-20,42.156,43.422,29910445
2015-02-23,43.132,41.467,42498875
2015-02-24,41.458,40.822,33017800
2015-02-25,40.988,40.752,19547600
2015-02-26,40.8,41.438,32364275
2015-02-27,41.38,40.668,19410420
2015-03-02,40.54,39.465,39610325
2015-03-03,39.362,39.912,22161645
2015-03-04,39.85,40.487,21109810
2015-03-05,40.57,40.126,24385075
2015-03-06,39.842,38.776,33562190
2015-03-09,38.878,38.176,33683620
2015-03-10,37.692,38.064,27898455
2015-03-11,38.23,38.748,24874355
2015-03-12,38.75,38.214,20746470
2015-03-13,37.79,37.736,27171490
2015-03-16,38.4,39.14,28143915
2015-03-17,39.086,38.946,24470260
2015-03-18,38.992,40.142,24104680
2015-03-19,40.4,39.13,42376220
2015-03-20,39.49,39.616,21347335
2015-03-23,39.7,39.926,13158130
2015-03-24,40.316,40.344,18249300
2015-03-25,39.654,38.86,28651945
2015-03-26,38.784,38.081,20639780
2015-03-27,37.814,37,43024735
2015-03-30,37.17,38.114,50447580
2015-03-31,38.706,37.754,25132845
2015-04-01,37.74,37.518,18973105
2015-04-02,38.046,38.2,25051840
2015-04-06,39.6,40.62,62279055
2015-04-07,40.502,40.65,21739320
2015-04-08,41.64,41.534,31515585
2015-04-09,41.686,42.018,19001125
2015-04-10,41.97,42.18,20338380
2015-04-13,42.087,41.956,18791150
2015-04-14,41.714,41.492,15129815
2015-04-15,41.492,41.566,9761890
2015-04-16,41.54,41.34,8295295
2015-04-17,40.998,41.358,12349630
2015-04-20,41.356,41.054,12796255
2015-04-21,41.16,41.882,17162705
2015-04-22,42.5,43.888,39315185
2015-04-23,43.654,43.72,22055920
2015-04-24,44.1,43.685,12139215
2015-04-27,44.512,46.31,58363135
2015-04-28,46.95,46.096,30426895
2015-04-29,46.01,46.49,19680385
2015-04-30,46.078,45.21,19559285
2015-05-01,45.988,45.206,26408445
2015-05-04,45.636,46.102,22172980
2015-05-05,47.552,46.59,28984365
2015-05-06,46.82,46.086,26354665
2015-05-07,44.2,47.36,47279545
2015-05-08,47.198,47.322,23341180
2015-05-11,47.258,47.898,28361310
2015-05-12,48.022,48.948,31817145
2015-05-13,49.522,48.636,27200825
2015-05-14,48.964,48.82,14479680
2015-05-15,48.786,49.768,22637815
2015-05-18,49.4,49.75,16766060
2015-05-19,49.686,49.428,18371155
2015-05-20,49.426,48.87,18777845
2015-05-21,48.606,49.124,9853215
2015-05-22,49.076,49.546,11115445
2015-05-26,49.536,49.491,17493410
2015-05-27,49.702,49.486,17041000
2015-05-28,49.406,50.29,18236415
2015-05-29,50.2,50.16,18946415
2015-06-01,50.282,49.89,12525285
2015-06-02,49.784,49.67,10674045
2015-06-03,49.64,49.798,8907525
2015-06-04,49.5,49.184,12268075
2015-06-05,49.2,49.828,15110130
2015-06-08,50.17,51.258,25084985
2015-06-09,51.08,51.2,13055730
2015-06-10,50.38,50.14,17272265
2015-06-11,50.652,50.282,10220290
2015-06-12,50.042,50.138,7111675
2015-06-15,49.94,50.076,10930875
2015-06-16,50.026,50.624,9923390
2015-06-17,50.434,52.082,27564600
2015-06-18,52.4,52.378,13913515
2015-06-19,52.48,52.502,12315065
2015-06-22,52.43,51.958,22805395
2015-06-23,52.064,53.534,19354090
2015-06-24,53.396,53.034,12061465
2015-06-25,53.29,53.758,14246020
2015-06-26,53.778,53.418,19192170
2015-06-29,52.39,52.404,17394545
2015-06-30,52.96,53.652,15434675
2015-07-01,54.222,53.83,10506120
2015-07-02,56.039,56.004,35819650
2015-07-06,55.776,55.944,20609665
2015-07-07,55,53.576,30525630
2015-07-08,51.864,50.992,31105385
2015-07-09,51.816,51.584,16670385
2015-07-10,52.444,51.83,13054290
2015-07-13,52.45,52.432,14801595
2015-07-14,52.42,53.13,9538205
2015-07-15,53.348,52.628,10108105
2015-07-16,52.844,53.336,8079805
2015-07-17,54.5,54.932,25020495
2015-07-20,55,56.452,24892270
2015-07-21,54.01,53.354,30543430
2015-07-22,52.254,53.574,15524800
2015-07-23,53.93,53.44,11136195
2015-07-24,53.476,53.082,14182490
2015-07-27,52.486,50.602,23470960
2015-07-28,51.15,52.964,19479040
2015-07-29,52.854,52.764,13950475
2015-07-30,52.538,53.358,10172800
2015-07-31,53.52,53.23,11112760
2015-08-03,53.258,51.998,12767370
2015-08-04,52.002,53.256,11762650
2015-08-05,52.716,54.026,31071595
2015-08-06,49.908,49.226,73118770
2015-08-07,48.716,48.502,25366950
2015-08-10,47.63,48.228,20929300
2015-08-11,47.43,47.474,21324695
2015-08-12,47,47.634,18695785
2015-08-13,47.972,48.502,23445910
2015-08-14,49.448,48.63,21824050
2015-08-17,51.112,50.998,35883450
2015-08-18,51.076,52.144,20975175
2015-08-19,52.066,51.05,18021410
2015-08-20,50.412,48.436,24528785
2015-08-21,47.2,46.154,32951170
2015-08-24,40.558,43.774,47907925
2015-08-25,46.104,44.006,21636470
2015-08-26,45.586,44.968,24815210
2015-08-27,46.2,48.598,38279795
2015-08-28,48.372,49.696,27568365
2015-08-31,49.124,49.812,23501160
2015-09-01,48.068,47.726,27273825
2015-09-02,49.06,49.538,23145870
2015-09-03,50.412,49.114,20973860
2015-09-04,48.178,48.386,18445765
2015-09-08,49.01,49.634,15691155
2015-09-09,50.41,49.782,16953940
2015-09-10,49.446,49.696,13545120
2015-09-11,49.528,50.048,11754220
2015-09-14,50.22,50.638,14454255
2015-09-15,50.55,50.714,14667330
2015-09-16,50.608,52.45,22085405
2015-09-17,52.792,52.414,17929060
2015-09-18,51.592,52.124,18815320
2015-09-21,52.796,52.84,30600775
2015-09-22,51.806,52.188,18321765
2015-09-23,52.39,52.212,13003890
2015-09-24,51.906,52.624,17240955
2015-09-25,53.322,51.382,18866960
2015-09-28,51.47,49.686,24505285
2015-09-29,50.092,49.33,18515770
2015-09-30,50.4,49.68,24647910
2015-10-01,49.502,47.976,22864820
2015-10-02,47.12,49.514,22119910
2015-10-05,49.768,49.23,18449325
2015-10-06,48,48.292,26179485
2015-10-07,47.326,46.392,34069795
2015-10-08,46.016,45.344,30666080
2015-10-09,44.186,44.138,30791850
2015-10-12,44.598,43.116,19181515
2015-10-13,42.656,43.85,25857675
2015-10-14,44.134,43.376,15522230
2015-10-15,43.286,44.262,14221165
2015-10-16,44.608,45.402,21672465
2015-10-19,45.3,45.62,12539475
2015-10-20,45.544,42.606,74500235
2015-10-21,42.398,42.018,20917355
2015-10-22,42.312,42.344,14125795
2015-10-23,43,41.818,21177310
2015-10-26,42.276,43.052,16957190
2015-10-27,42.968,42.07,17597245
2015-10-28,42.262,42.592,13642965
2015-10-29,42.35,42.326,9025160
2015-10-30,42.08,41.386,22194505
2015-11-02,41.784,42.758,19639720
2015-11-03,42.77,41.67,41662430
2015-11-04,45.4,46.326,63631830
2015-11-05,46.116,46.354,22484215
2015-11-06,46.14,46.472,12226465
2015-11-09,46.598,45.066,19254300
2015-11-10,44.696,43.3,23085035
2015-11-11,43.554,43.816,16739030
2015-11-12,43.57,42.588,14579500
2015-11-13,42.59,41.438,17151635
2015-11-16,41.218,42.862,14626975
2015-11-17,43.04,42.8,10743395
2015-11-18,42.9,44.214,14059500
2015-11-19,44.108,44.36,12521875
2015-11-20,44.698,44.002,22003610
2015-11-23,43.47,43.55,12630995
2015-11-24,43.074,43.65,12401465
2015-11-25,44.268,45.928,19953895
2015-11-27,46.212,46.322,9746765
2015-11-30,46.358,46.052,13299065
2015-12-01,46.212,47.438,18669775
2015-12-02,47.4,46.398,14907340
2015-12-03,47.096,46.542,14697820
2015-12-04,46.492,46.076,12868015
2015-12-07,45.54,46.226,15721115
2015-12-08,45.504,45.344,13438180
2015-12-09,45.34,44.904,15288765
2015-12-10,44.942,45.414,10358460
2015-12-11,45.048,43.404,16343630
2015-12-14,43.502,43.716,14157590
2015-12-15,44.364,44.218,11222120
2015-12-16,44.42,46.902,25521705
2015-12-17,46.788,46.678,16493190
2015-12-18,46.578,46.092,15070850
2015-12-21,46.338,46.512,9765870
2015-12-22,46.998,45.99,9807475
2015-12-23,46.436,45.94,7774895
2015-12-24,46.112,46.114,3551385
2015-12-28,46.298,45.79,9506520
2015-12-29,46.012,47.438,12031450
2015-12-30,47.32,47.618,18489605
2015-12-31,47.702,48.002,13575190
2016-01-04,46.144,44.682,34135730
2016-01-05,45.272,44.686,15933760
2016-01-06,44,43.808,18895640
2016-01-07,42.838,43.13,17771255
2016-01-08,43.572,42.2,18140290
2016-01-11,42.802,41.57,20457110
2016-01-12,42.32,41.994,15459585
2016-01-13,42.402,40.062,20632080
2016-01-14,40.442,41.236,32453705
2016-01-15,39.794,40.998,27893200
2016-01-19,41.742,40.944,20193380
2016-01-20,39.88,39.74,29193040
2016-01-21,40.31,39.994,15830795
2016-01-22,40.9601,40.51,15620275
2016-01-25,40.012,39.276,13493695
2016-01-26,39.34,38.712,24820900
2016-01-27,38.476,37.614,18086105
2016-01-28,38.158,37.94,22963770
2016-01-29,37.99,38.24,14261445
2016-02-01,37.752,39.388,26488195
2016-02-02,38.484,36.556,28868185
2016-02-03,36.718,34.696,39656810
2016-02-04,34.14,35.066,21926830
2016-02-05,34.26,32.52,47187955
2016-02-08,31.421,29.598,46564940
2016-02-09,28.464,29.65,43258240
2016-02-10,30.1,28.734,52032565
2016-02-11,30.4,30.094,71261820
2016-02-12,31,30.208,36178915
2016-02-16,31.74,31.034,27968970
2016-02-17,31.8,33.736,29125795
2016-02-18,34.484,33.354,19437870
2016-02-19,32.732,33.316,14796950
2016-02-22,34.024,35.548,25300255
2016-02-23,35.232,35.442,29921870
2016-02-24,34.55,35.8,26978045
2016-02-25,35.73,37.486,28753705
2016-02-26,37.74,38.068,30325585
2016-02-29,38.48,38.386,22494985
2016-03-01,38.85,37.27,33560795
2016-03-02,36.746,37.668,24311980
2016-03-03,37.656,39.148,24145090
2016-03-04,39.6,40.208,32445290
2016-03-07,39.536,41.058,26685360
2016-03-08,40.7,40.52,20893465
2016-03-09,40.904,41.744,16042770
2016-03-10,42,41.036,25962615
2016-03-11,41.586,41.5,16715385
2016-03-14,42.53,43.03,20328530
2016-03-15,42.854,43.668,15902260
2016-03-16,43.6,44.386,17583515
2016-03-17,44.294,45.276,18914455
2016-03-18,45.82,46.548,23558965
2016-03-21,47.068,47.664,26539110
2016-03-22,47.442,46.848,21579940
2016-03-23,46.474,44.516,24744205
2016-03-24,43.156,45.55,24804500
2016-03-28,46.322,46.052,19628425
2016-03-29,45.978,46.026,20071650
2016-03-30,47.018,45.378,20164910
2016-03-31,45.868,45.954,40064360
2016-04-01,48.965,47.518,79987545
2016-04-04,49.824,49.398,67376635
2016-04-05,48.1,51.094,49743495
2016-04-06,50.794,53.084,58527395
2016-04-07,53.29,51.44,44280855
2016-04-08,52.1,50.014,36819675
2016-04-11,50.2,49.984,45808465
2016-04-12,49.9,49.564,28816040
2016-04-13,49.702,50.906,24627975
2016-04-14,50.6,50.372,20660925
2016-04-15,50.262,50.902,18761830
2016-04-18,50.446,50.776,21356810
2016-04-19,50.624,49.474,31787630
2016-04-20,49.252,49.994,25970255
2016-04-21,49.798,49.658,13915295
2016-04-22,49.778,50.75,18931635
2016-04-25,50.602,50.364,18351740
2016-04-26,50.41,50.748,16119195
2016-04-27,50.55,50.294,16029040
2016-04-28,49.97,49.542,12594950
2016-04-29,49.628,48.152,27068935
2016-05-02,48.3,48.36,19219675
2016-05-03,47.472,46.464,21511110
2016-05-04,46.058,44.512,43502295
2016-05-05,45.692,42.306,56274135
2016-05-06,42.174,42.986,28426185
2016-05-09,43.144,41.784,23881915
2016-05-10,41.51,41.738,20353085
2016-05-11,41.518,41.792,25809320
2016-05-12,42.288,41.456,18252375
2016-05-13,41.556,41.522,14113905
2016-05-16,41.63,41.658,14746980
2016-05-17,41.81,40.932,14217985
2016-05-18,41.83,42.234,28087595
2016-05-19,42.724,43.042,34331605
2016-05-20,43.398,44.056,45035380
2016-05-23,43.974,43.244,25512395
2016-05-24,43.32,43.582,15069215
2016-05-25,43.582,43.916,15663075
2016-05-26,44.1,45.024,20362120
2016-05-27,44.998,44.608,18251360
2016-05-31,44.608,44.646,13945010
2016-06-01,44.296,43.912,14913475
2016-06-02,43.918,43.792,10164160
2016-06-03,44,43.798,11144850
2016-06-06,43.6,44.136,11247540
2016-06-07,44.448,46.468,31067865
2016-06-08,46.76,47.104,29859975
2016-06-09,46.996,45.872,22460375
2016-06-10,45.478,43.758,30133015
2016-06-13,43.9,43.574,20965110
2016-06-14,43.776,42.992,17900835
2016-06-15,43.39,43.54,14542610
2016-06-16,43.484,43.586,12201295
2016-06-17,43.562,43.094,15563100
2016-06-20,43.9,43.94,17777355
2016-06-21,44.136,43.922,22645025
2016-06-22,39.894,39.332,118712070
2016-06-23,39.138,39.28,50653740
2016-06-24,38.01,38.63,35132580
2016-06-27,38.172,39.71,36101615
2016-06-28,40.378,40.358,31062110
2016-06-29,41.026,42.038,29974540
2016-06-30,42.594,42.456,24215555
2016-07-01,41.228,43.3,26999755
2016-07-05,41.946,42.796,25876725
2016-07-06,42,42.888,24599275
2016-07-07,42.62,43.188,18060110
2016-07-08,43.56,43.356,20373925
2016-07-11,43.992,44.956,27149115
2016-07-12,44.82,44.93,22880825
2016-07-13,45.1,44.506,17835310
2016-07-14,44.624,44.306,13379170
2016-07-15,44.504,44.08,11171235
2016-07-18,43.928,45.25,17060275
2016-07-19,45,45.052,15575325
2016-07-20,45.294,45.672,12842490
2016-07-21,45.2,44.1,22143255
2016-07-22,44.398,44.454,12898460
2016-07-25,44.454,46.002,22453415
2016-07-26,45.538,45.902,17150210
2016-07-27,45.868,45.698,14445035
2016-07-28,45.59,46.122,12095295
2016-07-29,46.14,46.958,15354065
2016-08-01,47.1,46.002,20081420
2016-08-02,45.874,45.44,19672160
2016-08-03,45.474,45.158,19438795
2016-08-04,45.138,46.122,20734985
2016-08-05,46,46.006,16026075
2016-08-08,45.6,45.232,11317920
2016-08-09,45.364,45.816,11039165
2016-08-10,45.648,45.13,11691505
2016-08-11,45.234,44.982,9404680
2016-08-12,45.082,45.122,9067700
2016-08-15,45.204,45.118,10171640
2016-08-16,45.098,44.722,11335735
2016-08-17,44.866,44.648,8935635
2016-08-18,44.764,44.702,8572335
2016-08-19,44.708,45,8297650
2016-08-22,44.834,44.586,10327465
2016-08-23,44.864,44.968,23922090
2016-08-24,45.41,44.524,12853465
2016-08-25,44.622,44.192,8812595
2016-08-26,44.428,43.998,11194960
2016-08-29,44.03,43.04,16331670
2016-08-30,43.222,42.268,15844310
2016-08-31,42.086,42.402,16382740
2016-09-01,41.802,40.154,39715690
2016-09-02,40.466,39.556,29887065
2016-09-06,39.804,40.566,21952860
2016-09-07,41.1,40.342,18204615
2016-09-08,39.91,39.472,16889730
2016-09-09,39.818,38.894,18784960
2016-09-12,39,39.66,18575805
2016-09-13,39.412,39.21,17946895
2016-09-14,39.15,39.282,11296155
2016-09-15,39.298,40.084,15425575
2016-09-16,40.084,41.08,15539040
2016-09-19,41.4,41.268,11497490
2016-09-20,41.37,40.928,12052440
2016-09-21,41.274,41.044,13167515
2016-09-22,41.28,41.286,11914510
2016-09-23,41.198,41.49,14526145
2016-09-26,41.3,41.798,11971790
2016-09-27,41.93,41.162,16865900
2016-09-28,41.502,41.254,10441870
2016-09-29,41.12,40.14,13635145
2016-09-30,40.442,40.806,12931365
2016-10-03,42.46,42.74,29999460
2016-10-04,42.62,42.282,17707405
2016-10-05,42.448,41.692,9387670
2016-10-06,40.492,40.2,23517010
2016-10-07,40.2,39.322,17465090
2016-10-10,40.27,40.19,16581485
2016-10-11,40.37,40.02,11642110
2016-10-12,40.19,40.302,9853445
2016-10-13,40.1,40.048,12477065
2016-10-14,40.132,39.302,21349250
2016-10-17,39.41,38.792,22770400
2016-10-18,39.198,39.82,28402375
2016-10-19,39.948,40.712,34955915
2016-10-20,40.424,39.82,25364385
2016-10-21,39.72,40.018,14717010
2016-10-24,40.2,40.552,13757810
2016-10-25,40.58,40.468,12225070
2016-10-26,40.2,40.448,28164205
2016-10-27,42.268,40.802,65468720
2016-10-28,40.8,39.994,21400705
2016-10-31,40.498,39.546,23461365
2016-11-01,39.608,38.158,35300180
2016-11-02,38.01,37.604,21266910
2016-11-03,37.8,37.484,13265115
2016-11-04,37.8,38.112,25730215
2016-11-07,38.718,38.642,19350560
2016-11-08,38.758,38.988,16337900
2016-11-09,37.375,38.012,40865325
2016-11-10,38.21,37.07,33751705
2016-11-11,36.848,37.712,19942520
2016-11-14,37.6,36.29,32761025
2016-11-15,36.556,36.754,19510090
2016-11-16,36.53,36.786,17172185
2016-11-17,36.698,37.732,24435335
2016-11-18,38.13,37.004,26051735
2016-11-21,37.008,36.904,21805215
2016-11-22,37.168,38.234,28016805
2016-11-23,38.122,38.628,24459465
2016-11-25,38.728,39.33,11830490
2016-11-28,39.096,39.224,22645910
2016-11-29,39.112,37.914,22196280
2016-11-30,38.2,37.88,17735520
2016-12-01,37.65,36.376,25632005
2016-12-02,36.576,36.294,20211620
2016-12-05,36.502,37.36,20361195
2016-12-06,37.104,37.17,16958110
2016-12-07,37.23,38.63,27309255
2016-12-08,38.41,38.458,15970740
2016-12-09,38.174,38.436,13612525
2016-12-12,38.56,38.486,12194380
2016-12-13,38.636,39.63,34119420
2016-12-14,39.748,39.738,20754635
2016-12-15,39.682,39.516,16097835
2016-12-16,39.616,40.498,18984445
2016-12-19,40.498,40.546,17440355
2016-12-20,40.61,41.758,23445355
2016-12-21,41.69,41.54,26038110
2016-12-22,41.644,41.69,15555540
2016-12-23,41.6,42.668,23352320
2016-12-27,42.976,43.906,29578660
2016-12-28,44.306,43.948,18912280
2016-12-29,43.712,42.936,20224840
2016-12-30,43.26,42.738,23213100
2017-01-03,42.972,43.398,29616270
2017-01-04,42.95,45.398,56067355
2017-01-05,45.284,45.35,29558475
2017-01-06,45.386,45.802,27639465
2017-01-09,45.794,46.256,19897420
2017-01-10,46.4,45.974,18299775
2017-01-11,45.814,45.946,18254125
2017-01-12,45.812,45.918,18951145
2017-01-13,46,47.55,30464800
2017-01-17,47.34,47.116,23087610
2017-01-18,47.33,47.672,18844835
2017-01-19,49.45,48.752,38661515
2017-01-20,49.092,48.946,21021375
2017-01-23,49.17,49.784,31314690
2017-01-24,50,50.922,24827255
2017-01-25,51.462,50.894,25731805
2017-01-26,50.858,50.502,15760615
2017-01-27,50.276,50.59,15831680
2017-01-30,50.506,50.126,19005370
2017-01-31,49.848,50.386,20580520
2017-02-01,50.61,49.848,19794145
2017-02-02,49.668,50.31,12498875
2017-02-03,50.382,50.266,10933615
2017-02-06,50.2,51.554,17812585
2017-02-07,51.638,51.496,21223875
2017-02-08,51.47,52.416,19665070
2017-02-09,53.25,53.84,39101110
2017-02-10,53.958,53.846,18098695
2017-02-13,54.148,56.12,35148025
2017-02-14,55.806,56.196,36726120
2017-02-15,56,55.952,24739280
2017-02-16,55.52,53.79,35386610
2017-02-17,53.16,54.446,31285745
2017-02-21,55.09,55.478,28383735
2017-02-22,56.062,54.702,43774875
2017-02-23,52.8,51.198,74576245
2017-02-24,50.532,51.4,40858130
2017-02-27,49.634,49.246,57304050
2017-02-28,48.838,49.998,30390725
2017-03-01,50.836,50.004,24047440
2017-03-02,49.942,50.096,16759165
2017-03-03,50.148,50.314,14646170
2017-03-06,49.582,50.242,16777500
2017-03-07,50.384,49.718,17297350
2017-03-08,49.4,49.374,18643245
2017-03-09,49.526,48.98,19396465
2017-03-10,49.242,48.738,15331360
2017-03-13,48.964,49.234,15113125
2017-03-14,49.222,51.6,37992230
2017-03-15,51.4,51.146,26654030
2017-03-16,52.48,52.41,35660765
2017-03-17,52.8,52.3,32487480
2017-03-20,52.12,52.384,18071470
2017-03-21,52.566,50.136,34542770
2017-03-22,50.312,51.002,20296485
2017-03-23,51.078,50.956,16601225
2017-03-24,51.14,52.632,28236265
2017-03-27,52.12,54.044,31153975
2017-03-28,55.404,55.49,39938020
2017-03-29,55.668,55.476,18380785
2017-03-30,55.608,55.584,20742130
2017-03-31,55.746,55.66,16473200
2017-04-03,57.38,59.704,69443090
2017-04-04,59.378,60.74,50672780
2017-04-05,60.408,59,39404690
2017-04-06,59.376,59.74,27602940
2017-04-07,59.5,60.508,22898065
2017-04-10,61.83,62.478,38322290
2017-04-11,62.676,61.742,28622885
2017-04-12,61.268,59.368,30253410
2017-04-13,59.34,60.8,46423170
2017-04-17,60.54,60.288,20693680
2017-04-18,59.94,60.05,15178490
2017-04-19,60.492,61.104,19490120
2017-04-20,61.302,60.502,30746760
2017-04-21,60.4,61.12,22548780
2017-04-24,61.844,61.606,25417525
2017-04-25,61.6,62.758,33688540
2017-04-26,62.474,62.034,23475220
2017-04-27,62.338,61.726,17342845
2017-04-28,61.966,62.814,22527390
2017-05-01,62.976,64.566,44147825
2017-05-02,64.8,63.778,26913885
2017-05-03,63.534,62.204,35666825
2017-05-04,61.487,59.092,70760040
2017-05-05,59.6,61.67,40886735
2017-05-08,62.18,61.438,35032355
2017-05-09,61.876,64.252,48382685
2017-05-10,64.312,65.044,28708035
2017-05-11,64.68,64.62,23769095
2017-05-12,65.096,64.962,20608060
2017-05-15,63.676,63.176,38110020
2017-05-16,63.518,63.402,20762420
2017-05-17,62.878,61.222,33559700
2017-05-18,61.4,62.612,28269005
2017-05-19,63.1,62.166,23437860
2017-05-22,62.56,62.07,21645890
2017-05-23,62.092,60.772,21591770
2017-05-24,61.302,62.044,25208460
2017-05-25,62.204,63.366,25069815
2017-05-26,63.456,65.028,39010995
2017-05-30,65.2,67.02,38914580
2017-05-31,67.538,68.202,49817220
2017-06-01,68.8,68.074,38039980
2017-06-02,67.954,67.97,27951195
2017-06-05,67.7,69.464,33921840
2017-06-06,68.94,70.57,55433990
2017-06-07,71.268,71.93,46989795
2017-06-08,72.75,74,45307480
2017-06-09,74.884,71.464,86307175
2017-06-12,71.598,71.802,52588300
2017-06-13,73.524,75.19,59039600
2017-06-14,76.217,76.132,64092145
2017-06-15,74.5,75.068,52132345
2017-06-16,75.595,74.28,33654865
2017-06-19,75,73.96,32746660
2017-06-20,75.334,74.448,37193505
2017-06-21,74.87,75.28,24616050
2017-06-22,75.598,76.522,37648890
2017-06-23,76.49,76.69,32228790
2017-06-26,77.338,75.498,33020495
2017-06-27,75.28,72.474,34981995
2017-06-28,73.336,74.248,31512315
2017-06-29,74.122,72.15,41105190
2017-06-30,72.742,72.322,29242605
2017-07-03,74.048,70.524,31527005
2017-07-05,69.44,65.418,85233505
2017-07-06,63.452,61.766,96622475
2017-07-07,62.7,62.644,70884575
2017-07-10,62.58,63.21,69104445
2017-07-11,63.2,65.444,57797010
2017-07-12,66.08,65.904,51730635
2017-07-13,66.022,64.682,42972330
2017-07-14,64.638,65.556,28126055
2017-07-17,65.108,63.914,49384560
2017-07-18,63.5,65.648,31868600
2017-07-19,65.646,65.052,31785070
2017-07-20,65.38,65.984,25830940
2017-07-21,65.892,65.68,24508030
2017-07-24,66.048,68.504,43185410
2017-07-25,69,67.92,34945985
2017-07-26,68.072,68.77,24103950
2017-07-27,69.2,66.892,41512025
2017-07-28,67.378,67.014,24402070
2017-07-31,67.1,64.694,42675680
2017-08-01,64.6,63.914,41515510
2017-08-02,63.788,65.178,65457310
2017-08-03,69.066,69.418,67675165
2017-08-04,69.4,71.382,46344545
2017-08-07,71.47,71.034,31622400
2017-08-08,71.506,73.044,37249185
2017-08-09,72.2,72.706,34460480
2017-08-10,72.32,71.08,35464290
2017-08-11,71.394,71.574,21828915
2017-08-14,72.926,72.76,22595930
2017-08-15,73.04,72.466,15425440
2017-08-16,72.6,72.582,17068865
2017-08-17,72.242,70.384,25138300
2017-08-18,70.582,69.492,27040915
2017-08-21,69.164,67.572,32477120
2017-08-22,68.226,68.27,21609830
2017-08-23,67.798,70.554,24772520
2017-08-24,70.504,70.586,22923435
2017-08-25,70.848,69.61,17419780
2017-08-28,69.456,69.132,18819780
2017-08-29,67.896,69.472,20368375
2017-08-30,69.934,70.636,17064715
2017-08-31,70.71,71.18,20363975
2017-09-01,71.224,71.08,15247730
2017-09-05,70.76,69.918,19241910
2017-09-06,69.9,68.906,20456755
2017-09-07,69.196,70.122,21196065
2017-09-08,69.798,68.68,16317540
2017-09-11,70.27,72.738,38335275
2017-09-12,72.898,72.55,29831015
2017-09-13,72.764,73.246,20855875
2017-09-14,72.866,75.528,35848830
2017-09-15,74.902,75.962,27015215
2017-09-18,76.05,77,35862630
2017-09-19,76,75.02,32175740
2017-09-20,74.6,74.782,24543090
2017-09-21,74.98,73.296,23047870
2017-09-22,73.298,70.218,40797090
2017-09-25,70.63,68.998,38029730
2017-09-26,70.186,69.05,35781370
2017-09-27,69.98,68.194,30301650
2017-09-28,67.976,67.92,26598085
2017-09-29,68.372,68.22,25535410
2017-10-02,68.504,68.306,26433870
2017-10-03,67.18,69.628,50767980
2017-10-04,70.25,71.002,40817715
2017-10-05,71.2,71.066,20858375
2017-10-06,70.62,71.376,21487370
2017-10-09,69.93,68.588,37468270
2017-10-10,69.36,71.118,34892475
2017-10-11,70.778,70.92,22504155
2017-10-12,70.59,71.136,20435240
2017-10-13,71.396,71.114,17702665
2017-10-16,70.752,70.12,26877430
2017-10-17,70.182,71.15,16466725
2017-10-18,71.194,71.93,24695370
2017-10-19,71.112,70.362,25309215
2017-10-20,70.538,69.02,24651975
2017-10-23,69.976,67.404,28736730
2017-10-24,67.76,67.468,22458360
2017-10-25,67.34,65.168,42970365
2017-10-26,65.556,65.234,25117500
2017-10-27,63.95,64.174,34898520
2017-10-30,63.836,64.016,21271890
2017-10-31,64.046,66.306,28361735
2017-11-01,66.45,64.216,42286680
2017-11-02,60.026,59.852,98957080
2017-11-03,59.9,61.218,44469870
2017-11-06,61.4,60.556,32430045
2017-11-07,60.204,61.21,26471370
2017-11-08,61.1,60.878,23626355
2017-11-09,60.5,60.598,27235735
2017-11-10,60.5,60.598,23127145
2017-11-13,60.026,63.08,37924720
2017-11-14,63,61.74,28380380
2017-11-15,61.202,62.26,29893325
2017-11-16,62.798,62.5,29110365
2017-11-17,65.134,63.01,68675695
2017-11-20,62.758,61.748,41238250
2017-11-21,62.172,63.562,36306365
2017-11-22,63.354,62.52,24588180
2017-11-24,62.758,63.11,16220325
2017-11-27,62.65,63.362,22779470
2017-11-28,63.272,63.51,24747455
2017-11-29,63.46,61.508,43836990
2017-11-30,61.712,61.77,21757935
2017-12-01,61.088,61.306,21464340
2017-12-04,61.3,61.04,29175700
2017-12-05,60.4,60.74,23232600
2017-12-06,60.02,62.652,35976705
2017-12-07,62.4,62.248,23902985
2017-12-08,62.92,63.026,17342290
2017-12-11,62.926,65.782,39689905
2017-12-12,66.09,68.206,43665995
2017-12-13,68.186,67.806,31107305
2017-12-14,68.202,67.578,28999580
2017-12-15,68.408,68.69,34665995
2017-12-18,68.98,67.774,27380830
2017-12-19,68.052,66.22,34124855
2017-12-20,66.538,65.796,29769000
2017-12-21,65.918,66.332,21926110
2017-12-22,65.902,65.04,21079035
2017-12-26,64.766,63.458,21892065
2017-12-27,63.2,62.328,23560555
2017-12-28,62.35,63.072,21581735
2017-12-29,63.236,62.27,18885775
2018-01-02,62.4,64.106,21761205
2018-01-03,64.2,63.45,22607635
2018-01-04,62.574,62.924,49731520
2018-01-05,63.324,63.316,22955900
2018-01-08,63.2,67.282,49297175
2018-01-09,67.032,66.738,35733155
2018-01-10,66.44,66.96,21549630
2018-01-11,67.048,67.59,33227420
2018-01-12,67.726,67.244,24125295
2018-01-16,67.508,68.012,32371255
2018-01-17,68.094,69.432,35517525
2018-01-18,69.134,68.914,28429225
2018-01-19,69,70.004,24441515
2018-01-22,69.88,70.312,31051800
2018-01-23,72,70.558,27327070
2018-01-24,70.916,69.178,26437390
2018-01-25,69.654,67.528,33701515
2018-01-26,68.3,68.57,22696780
2018-01-29,67.97,69.906,23735745
2018-01-30,69.028,69.164,23588500
2018-01-31,69.502,70.862,31070345
2018-02-01,70.2,69.85,20988435
2018-02-02,69.688,68.75,18524180
2018-02-05,67.594,66.626,22320735
2018-02-06,65.042,66.794,25442190
2018-02-07,67.798,69,34846195
2018-02-08,68.662,63.046,51572865
2018-02-09,63.986,62.084,64668605
2018-02-12,63.226,63.146,31139110
2018-02-13,63.004,64.732,22801155
2018-02-14,64.168,64.462,19753715
2018-02-15,64.9,66.813,29564585
2018-02-16,66.5,67.098,28213185
2018-02-20,66.894,66.954,20047175
2018-02-21,67.206,66.66,16098245
2018-02-22,67.106,69.234,34849040
2018-02-23,69.566,70.41,29086935
2018-02-26,70.7,71.484,21699925
2018-02-27,71.25,70.198,23987095
2018-02-28,70.514,68.612,30348290
2018-03-01,69.002,66.186,34428005
2018-03-02,65.396,67.024,25464145
2018-03-05,66.478,66.67,19118845
2018-03-06,66.75,65.64,21428720
2018-03-07,65.088,66.46,25036485
2018-03-08,66.572,65.82,17831220
2018-03-09,64.82,65.434,27533820
2018-03-12,65.722,69.102,41320175
2018-03-13,68.984,68.368,29829025
2018-03-14,67.352,65.326,39836850
2018-03-15,65.876,65.12,32824005
2018-03-16,65.192,64.27,30586395
2018-03-19,63.3,62.712,37421470
2018-03-20,62.974,62.11,23821465
2018-03-21,62.05,63.306,29792055
2018-03-22,62.778,61.82,24698855
2018-03-23,62.25,60.308,33274495
2018-03-26,61.468,60.836,41875875
2018-03-27,60.8,55.836,69360145
2018-03-28,52.916,51.556,105007185
2018-03-29,51.298,53.226,75853745
2018-04-02,51.252,50.496,80569840
2018-04-03,53.964,53.506,94221920
2018-04-04,50.556,57.388,99483730
2018-04-05,57.868,61.144,95605505
2018-04-06,60.2,59.86,67601430
2018-04-09,60.074,57.932,51249025
2018-04-10,59.794,60.94,55121295
2018-04-11,60.1481,60.186,37414725
2018-04-12,60.464,58.816,38043845
2018-04-13,60.72,60.068,36636115
2018-04-16,59.8,58.242,31692440
2018-04-17,57.774,57.538,35000115
2018-04-18,58.216,58.67,32788500
2018-04-19,58.216,60.016,30452995
2018-04-20,59.034,58.048,28139640
2018-04-23,58.258,56.674,24466890
2018-04-24,57,56.692,28426540
2018-04-25,56.7,56.138,20067870
2018-04-26,55.75,57.096,21780065
2018-04-27,57.074,58.815,21823130
2018-04-30,58.722,58.78,21140860
2018-05-01,58.702,59.984,23128015
2018-05-02,59.714,60.23,44851850
2018-05-03,55.758,56.89,86760650
2018-05-04,56.6,58.818,42846770
2018-05-07,59.5,60.554,43391120
2018-05-08,60.1591,60.394,29650000
2018-05-09,60.082,61.37,28636825
2018-05-10,61.4999,61.004,28257805
2018-05-11,61.54,60.212,23398245
2018-05-14,60.664,58.394,36434020
2018-05-15,57.002,56.836,47595865
2018-05-16,56.766,57.296,28370095
2018-05-17,57.18,56.908,22103060
2018-05-18,56.93,55.364,36259435
2018-05-21,56.266,56.898,45912855
2018-05-22,57.5524,55.002,44728780
2018-05-23,55.552,55.814,29925265
2018-05-24,55.68,55.57,20883540
2018-05-25,55.525,55.77,19375410
2018-05-29,55.702,56.752,28333200
2018-05-30,56.658,58.344,37448430
2018-05-31,57.442,56.946,29598605
2018-06-01,57.172,58.364,27121930
2018-06-04,58.868,59.348,23989050
2018-06-05,59.54,58.226,29975785
2018-06-06,60.1,63.9,93836345
2018-06-07,63.23,63.218,71726355
2018-06-08,63.8,63.532,41026010
2018-06-11,64.502,66.42,65917365
2018-06-12,68.94,68.554,111737015
2018-06-13,69.3412,68.956,47349020
2018-06-14,69.526,71.544,54905115
2018-06-15,70.768,71.634,54241270
2018-06-18,71.08,74.166,60366130
2018-06-19,73.032,70.51,63809515
2018-06-20,71.608,72.444,41918280
2018-06-21,72.4,69.502,39835725
2018-06-22,70.308,66.726,51330295
2018-06-25,66.024,66.602,34656520
2018-06-26,67.2108,68.4,37262435
2018-06-27,69,68.9,41668635
2018-06-28,69.732,69.986,41990025
2018-06-29,70.666,68.59,32461980
2018-07-02,72.014,67.014,93798825
2018-07-03,66.35,62.172,61413190
2018-07-05,62.752,61.832,87381870
2018-07-06,60.9909,61.78,44327255
2018-07-09,62.398,63.702,37983765
2018-07-10,64.912,64.494,47357490
2018-07-11,63.16,63.792,24420380
2018-07-12,64.286,63.342,28605830
2018-07-13,63.116,63.774,29378850
2018-07-16,62.342,62.02,39093275
2018-07-17,61.762,64.538,34981160
2018-07-18,65,64.77,28121055
2018-07-19,63.266,64.046,29576725
2018-07-20,64.246,62.716,25832735
2018-07-23,60.368,60.64,54964735
2018-07-24,60.8842,59.486,47953920
2018-07-25,59.348,61.748,35470900
2018-07-26,60.97,61.33,23152610
2018-07-27,61.45,59.436,28516630
2018-07-30,59.18,58.034,34070360
2018-07-31,58.45,59.628,25384580
2018-08-01,59.598,60.168,50647150
2018-08-02,65.688,69.908,116074810
2018-08-03,69.562,69.634,68282430
2018-08-06,69.092,68.398,42821655
2018-08-07,68.768,75.914,154378840
2018-08-08,73.818,74.068,122855815
2018-08-09,73.11,70.49,85919055
2018-08-10,70.8,71.098,57760220
2018-08-13,72.226,71.282,52319405
2018-08-14,71.69,69.528,34932135
2018-08-15,68.3812,67.738,45506290
2018-08-16,67.982,67.09,30320165
2018-08-17,64.7,61.1,94793060
2018-08-20,58.3407,61.688,87011675
2018-08-21,62.122,64.38,65861150
2018-08-22,64.174,64.328,29729775
2018-08-23,63.828,64.02,25736430
2018-08-24,64.14,64.564,18012820
2018-08-27,63.6,63.854,65396440
2018-08-28,63.682,62.372,38245455
2018-08-29,62.054,61.002,37236960
2018-08-30,60.452,60.63,36083530
2018-08-31,60.4,60.332,26875520
2018-09-04,59.388,57.79,41752345
2018-09-05,57.01,56.148,38604105
2018-09-06,56.96,56.19,37403800
2018-09-07,52.02,52.648,112459655
2018-09-10,54.652,57.1,71417640
2018-09-11,55.894,55.888,45849945
2018-09-12,56.288,58.108,50077135
2018-09-13,57.604,57.892,31701680
2018-09-14,57.752,59.04,33828060
2018-09-17,58.008,58.968,34437885
2018-09-18,59.338,56.992,82737610
2018-09-19,56.102,59.804,41474585
2018-09-20,60.712,59.666,36747110
2018-09-21,59.54,59.82,25252390
2018-09-24,59.696,59.936,24214805
2018-09-25,60,60.198,22408645
2018-09-26,60.382,61.916,39216080
2018-09-27,62.58,61.504,42545420
2018-09-28,54.052,52.954,168248470
2018-10-01,61.154,62.14,108887985
2018-10-02,62.79,60.204,58717555
2018-10-03,60.666,58.96,39974940
2018-10-04,58.79,56.366,49071060
2018-10-05,54.93,52.39,89722685
2018-10-08,52.904,50.112,67363265
2018-10-09,51.05,52.56,60302870
2018-10-10,52.922,51.376,64076390
2018-10-11,51.506,50.446,40838690
2018-10-12,52.2,51.756,36007020
2018-10-15,51.812,51.918,30999825
2018-10-16,53.14,55.318,47632005
2018-10-17,56.48,54.356,43277710
2018-10-18,53.858,52.782,27105920
2018-10-19,53.478,52,46877745
2018-10-22,52.136,52.19,28001300
2018-10-23,52.774,58.828,95138765
2018-10-24,60.21,57.7,100291290
2018-10-25,63.444,62.972,104203620
2018-10-26,61.65,66.18,137127600
2018-10-29,67.494,66.97,72430135
2018-10-30,65.678,65.98,45633520
2018-10-31,66.508,67.464,38121740
2018-11-01,67.652,68.856,40000660
2018-11-02,68.748,69.282,39039855
2018-11-05,68.1,68.28,39155240
2018-11-06,67.814,68.212,33814445
2018-11-07,68.668,69.632,36872610
2018-11-08,69.7,70.28,35453370
2018-11-09,69.8,70.102,25494230
2018-11-12,69.674,66.256,34707615
2018-11-13,66.632,67.746,27242985
2018-11-14,68.54,68.8,25201435
2018-11-15,68.466,69.688,23128595
2018-11-16,69.038,70.862,36030955
2018-11-19,71.268,70.694,48544355
2018-11-20,68.35,69.498,40023545
2018-11-21,70.4,67.638,23434040
2018-11-23,66.869,65.166,21013210
2018-11-26,65,69.2,39960705
2018-11-27,68.01,68.784,31791500
2018-11-28,69.198,69.574,20637890
2018-11-29,69.4,68.234,15403620
2018-11-30,68.366,70.096,28144475
2018-12-03,72,71.698,41532555
2018-12-04,71.21,71.94,42309725
2018-12-06,71.202,72.612,39212540
2018-12-07,73.8,71.593,57555885
2018-12-10,72,73.03,33067275
2018-12-11,73.982,73.352,31543845
2018-12-12,73.884,73.32,25135240
2018-12-13,74.03,75.358,36829270
2018-12-14,75,73.142,31687775
2018-12-17,72.4,69.684,38370040
2018-12-18,70.108,67.406,35499995
2018-12-19,67.52,66.594,41370905
2018-12-20,65.4107,63.076,45359290
2018-12-21,63.48,63.954,40084005
2018-12-24,62.7,59.078,27799565
2018-12-26,60,65.218,40815690
2018-12-27,63.968,63.226,42875665
2018-12-28,64.62,66.774,49694960
2018-12-31,67.558,66.56,31511690
2019-01-02,61.22,62.024,58293240
2019-01-03,61.4,60.072,34825920
2019-01-04,61.2,63.538,36970580
2019-01-07,64.344,66.992,37756125
2019-01-08,68.392,67.07,35042580
2019-01-09,67.1,67.706,27164725
2019-01-10,66.88,68.994,30281770
2019-01-11,68.418,69.452,25195260
2019-01-14,68.476,66.88,26236420
2019-01-15,67,68.886,30282950
2019-01-16,68.956,69.21,23458695
2019-01-17,69.242,69.462,18383665
2019-01-18,64.6,60.452,120753815
2019-01-22,60.964,59.784,60333705
2019-01-23,58.5,57.518,62649965
2019-01-24,56.606,58.302,40060775
2019-01-25,58.878,59.408,36290390
2019-01-28,58.582,59.276,32116395
2019-01-29,59.054,59.492,23108460
2019-01-30,60.09,61.754,56251590
2019-01-31,60.2,61.404,62846225
2019-02-01,61.084,62.442,36417205
2019-02-04,62.596,62.578,36760410
2019-02-05,62.498,64.27,33713825
2019-02-06,63.918,63.444,25192730
2019-02-07,62.66,61.502,32603055
2019-02-08,61.366,61.16,29221060
2019-02-11,62.32,62.568,35648565
2019-02-12,63.24,62.362,27587850
2019-02-13,62.47,61.634,25708085
2019-02-14,60.676,60.754,26004160
2019-02-15,60.9,61.576,19524735
2019-02-19,61.312,61.128,20842215
2019-02-20,60.882,60.512,35710585
2019-02-21,60.362,58.246,44545910
2019-02-22,58.898,58.942,28702790
2019-02-25,59.582,59.754,33132610
2019-02-26,58.444,59.572,42912675
2019-02-27,60.356,62.948,55919540
2019-02-28,63.784,63.976,52603265
2019-03-01,61.388,58.958,114556875
2019-03-04,59.624,57.072,85484090
2019-03-05,56.4,55.308,93823700
2019-03-06,55.296,55.248,51677425
2019-03-07,55.768,55.318,47212415
2019-03-08,55.382,56.828,44098125
2019-03-11,56.704,58.184,36961390
2019-03-12,57.298,56.672,37520685
2019-03-13,56.78,57.792,34223595
2019-03-14,58.49,57.992,35517235
2019-03-15,56.702,55.086,73927655
2019-03-18,55.2,53.898,51404900
2019-03-19,53.5,53.494,59003150
2019-03-20,53.938,54.72,34541120
2019-03-21,54.52,54.804,29735490
2019-03-22,54.516,52.906,43728045
2019-03-25,51.942,52.084,51075145
2019-03-26,52.888,53.554,36754740
2019-03-27,53.75,54.966,43895830
2019-03-28,55.432,55.724,33870465
2019-03-29,55.74,55.972,29956690
2019-04-01,56.524,57.836,40552195
2019-04-02,57.66,57.176,27394700
2019-04-03,57.464,58.362,39649320
2019-04-04,52.378,53.556,118603645
2019-04-05,53.972,54.992,65191285
2019-04-08,55.538,54.64,52052180
2019-04-09,54.33,54.462,29520155
2019-04-10,55.348,55.212,35306570
2019-04-11,53.66,53.684,49179635
2019-04-12,54.044,53.54,33729870
2019-04-15,53.726,53.276,50192895
2019-04-16,53.15,54.672,36364650
2019-04-17,54.95,54.246,25632340
2019-04-18,54.246,54.652,29381625
2019-04-22,53.8,52.55,60735705
2019-04-23,52.03,52.78,54719295
2019-04-24,52.77,51.732,53637270
2019-04-25,51,49.526,109246965
2019-04-26,49.3,47.028,111803545
2019-04-29,47.172,48.294,83572380
2019-04-30,48.412,47.738,47323140
2019-05-01,47.77,46.802,53521770
2019-05-02,49.104,48.82,90796695
2019-05-03,48.772,51.006,118533855
2019-05-06,50.004,51.068,54169715
2019-05-07,51.36,49.412,50657040
2019-05-08,49.388,48.968,30882200
2019-05-09,48.4,48.396,33556910
2019-05-10,47.95,47.904,35041680
2019-05-13,46.402,45.402,54173980
2019-05-14,45.86,46.462,36262060
2019-05-15,45.864,46.39,36479880
2019-05-16,45.898,45.666,37416365
2019-05-17,44.392,42.206,88933330
2019-05-20,40.56,41.072,102630975
2019-05-21,39.552,41.016,90019495
2019-05-22,39.82,38.546,93425935
2019-05-23,38.868,39.098,132735710
2019-05-24,39.966,38.126,70682860
2019-05-28,38.24,37.74,51564505
2019-05-29,37.42,37.972,59843190
2019-05-30,37.75,37.644,39632375
2019-05-31,37.02,37.032,52033660
2019-06-03,37.102,35.794,65322050
2019-06-04,36.22,38.72,69037610
2019-06-05,39.736,39.318,67553780
2019-06-06,40.888,41.19,101210755
2019-06-07,41,40.9,80017635
2019-06-10,42.05,42.576,52925195
2019-06-11,43.8287,43.42,58267685
2019-06-12,44.59,41.852,75987720
2019-06-13,42.076,42.782,40841300
2019-06-14,42.25,42.984,37167010
2019-06-17,43.096,45.006,61584015
2019-06-18,45.744,44.948,63578940
2019-06-19,45.022,45.286,32875675
2019-06-20,44.6,43.924,59317310
2019-06-21,43.244,44.372,41010390
2019-06-24,44.648,44.728,28753855
2019-06-25,44.878,43.952,30910355
2019-06-26,44.062,43.854,42536040
2019-06-27,43.89,44.568,31698550
2019-06-28,44.198,44.692,34256920
2019-07-01,46.042,45.434,41189820
2019-07-02,45.778,44.91,46295135
2019-07-03,47.878,46.98,71005740
2019-07-05,46.914,46.62,35328690
2019-07-08,46.248,46.068,29402710
2019-07-09,45.794,46.012,30954175
2019-07-10,46.83,47.784,45728680
2019-07-11,47.628,47.72,37572150
2019-07-12,47.95,49.016,46002605
2019-07-15,49.6,50.7,55000460
2019-07-16,49.86,50.476,40744945
2019-07-17,51.134,50.972,48823635
2019-07-18,51.01,50.708,23822415
2019-07-19,51.138,51.636,35242050
2019-07-22,51.75,51.136,34231365
2019-07-23,51.342,52.034,25115605
2019-07-24,51.834,52.976,55364175
2019-07-25,46.7,45.764,112091260
2019-07-26,45.384,45.608,50138485
2019-07-29,45.418,47.154,46366655
2019-07-30,46.58,48.452,40545070
2019-07-31,48.6,48.322,45891040
2019-08-01,48.53,46.77,41297580
2019-08-02,46.27,46.868,30682405
2019-08-05,45.92,45.664,35141395
2019-08-06,46.376,46.15,27821000
2019-08-07,45.3,46.684,23882500
2019-08-08,46.89,47.66,26371745
2019-08-09,47.2107,47.002,19491220
2019-08-12,45.762,45.802,23319685
2019-08-13,45.762,47,24344990
2019-08-14,46.242,43.924,47812955
2019-08-15,44.172,43.128,41159760
2019-08-16,43.332,43.988,26036880
2019-08-19,44.842,45.366,26558740
2019-08-20,45.524,45.172,20852635
2019-08-21,44.402,44.166,38998720
2019-08-22,44.56,44.43,32824820
2019-08-23,43.994,42.28,42798520
2019-08-26,42.72,43,25272070
2019-08-27,43.148,42.816,27103635
2019-08-28,42.738,43.118,16193125
2019-08-29,43.8,44.342,25915520
2019-08-30,45.83,45.122,46638875
2019-09-03,44.816,45.002,26802730
2019-09-04,45.378,44.136,28843480
2019-09-05,44.5,45.916,37016610
2019-09-06,45.44,45.49,20946860
2019-09-09,46,46.358,24013345
2019-09-10,46.16,47.108,24418570
2019-09-11,47.476,49.42,50213885
2019-09-12,49.54,49.174,42906050
2019-09-13,49.392,49.04,26565725
2019-09-16,49.2,48.562,23640480
2019-09-17,48.494,48.958,19734545
2019-09-18,49,48.698,21140515
2019-09-19,49.2,49.32,24415675
2019-09-20,49.298,48.124,32531320
2019-09-23,48,48.246,21958150
2019-09-24,48.304,44.642,64705560
2019-09-25,44.912,45.74,47221430
2019-09-26,46.132,48.512,60393925
2019-09-27,48.44,48.426,55615895
2019-09-30,48.6,48.174,29730805
2019-10-01,48.3,48.938,30981450
2019-10-02,48.658,48.626,31282740
2019-10-03,46.372,46.606,75688815
2019-10-04,46.322,46.286,40105900
2019-10-07,45.96,47.544,40434785
2019-10-08,47.174,48.01,43511690
2019-10-09,48.264,48.906,34675165
2019-10-10,49.056,48.948,31567085
2019-10-11,49.43,49.578,42440795
2019-10-14,49.58,51.392,51134315
2019-10-15,51.54,51.578,32397280
2019-10-16,51.478,51.95,33521515
2019-10-17,52.5,52.394,23895215
2019-10-18,52.14,51.39,28768330
2019-10-21,51.666,50.7,25540505
2019-10-22,50.864,51.116,23125475
2019-10-23,50.9,50.936,56080910
2019-10-24,59.674,59.936,149096155
2019-10-25,59.544,65.626,150030455
2019-10-28,65.508,65.542,94351430
2019-10-29,63.998,63.244,63421335
2019-10-30,62.6,63.002,48209050
2019-10-31,62.62,62.984,25334780
2019-11-01,63.264,62.662,31919645
2019-11-04,62.96,63.494,43935200
2019-11-05,63.924,63.444,34717085
2019-11-06,63.6,65.316,39704660
2019-11-07,65.828,67.108,72336740
2019-11-08,66.9,67.428,30371105
2019-11-11,68.79,69.018,49968445
2019-11-12,69.38,69.986,36796915
2019-11-13,71,69.222,42339315
2019-11-14,69.222,69.87,32358515
2019-11-15,70.128,70.434,24062815
2019-11-18,70.5833,69.998,22042525
2019-11-19,70.35,71.904,38680390
2019-11-20,72,70.444,33669825
2019-11-21,70.902,70.966,30550065
2019-11-22,68.032,66.608,84353210
2019-11-25,68.864,67.268,61728825
2019-11-26,67.054,65.784,39781195
2019-11-27,66.224,66.258,27817295
2019-11-29,66.222,65.988,12328145
2019-12-02,65.88,66.974,30409930
2019-12-03,66.524,67.24,33067380
2019-12-04,67.55,66.606,27681275
2019-12-05,66.566,66.074,18684880
2019-12-06,67,67.178,38094685
2019-12-09,67.318,67.906,45201085
2019-12-10,67.992,69.768,44199755
2019-12-11,70.3753,70.54,34595810
2019-12-12,70.984,71.936,38881055
2019-12-13,72.21,71.678,32871405
2019-12-16,72.51,76.3,91104700
2019-12-17,75.798,75.798,42518875
2019-12-18,76.126,78.63,70681960
2019-12-19,79.464,80.808,90601535
2019-12-20,82.058,81.118,73926030
2019-12-23,82.356,83.844,66664105
2019-12-24,83.672,85.05,40273600
2019-12-26,85.582,86.188,53241445
2019-12-27,87,86.076,49784135
2019-12-30,85.758,82.94,63006325
2019-12-31,81.0001,83.666,51462280
2020-01-02,84.9,86.052,47791930
2020-01-03,88.1,88.602,88973485
2020-01-06,88.094,90.308,50787495
2020-01-07,92.28,93.812,91045690
2020-01-08,94.74,98.428,155996965
2020-01-09,99.42,96.268,142315930
2020-01-10,96.358,95.63,64884160
2020-01-13,98.7,104.972,133172735
2020-01-14,108.851,107.584,145306885
2020-01-15,105.952,103.7,86844155
2020-01-16,98.75,102.698,108683265
2020-01-17,101.522,102.1,68145365
2020-01-21,106.05,109.44,89017355
2020-01-22,114.378,113.912,156845140
2020-01-23,112.85,114.44,98255210
2020-01-24,114.126,112.964,71768000
2020-01-27,108.398,111.604,68040340
2020-01-28,113.698,113.38,58942465
2020-01-29,115.138,116.198,91083360
2020-01-30,126.484,128.162,145028380
2020-01-31,128,130.114,78596330
2020-02-03,134.738,156,236167475
2020-02-04,176.592,177.412,304693790
2020-02-05,164.652,146.94,242119185
2020-02-06,139.984,149.792,199403760
2020-02-07,146.11,149.614,85317605
2020-02-10,160,154.256,123445815
2020-02-11,153.758,154.876,58487365
2020-02-12,155.574,153.458,60112350
2020-02-13,148.368,160.8,131446740
2020-02-14,157.444,160.006,78468555
2020-02-18,168.32,171.68,83491845
2020-02-19,184.7,183.484,127114790
2020-02-20,182.39,179.882,88174465
2020-02-21,181.396,180.2,71697230
2020-02-24,167.8,166.758,75960815
2020-02-25,169.8,159.982,86452405
2020-02-26,156.5,155.76,70769215
2020-02-27,146,135.8,121385800
2020-02-28,125.94,133.598,122820855
2020-03-02,142.252,148.724,100974955
2020-03-03,161,149.102,128920015
2020-03-04,152.7921,149.9,75244885
2020-03-05,144.754,144.908,54263285
2020-03-06,138.0007,140.696,63314590
2020-03-09,121.078,121.6,85368700
2020-03-10,131.886,129.066,77972215
2020-03-11,128.04,126.846,67067935
2020-03-12,116.178,112.11,94545260
2020-03-13,119,109.324,113201270
2020-03-16,93.8999,89.014,102447320
2020-03-17,88.002,86.04,119972900
2020-03-18,77.8,72.244,118930810
2020-03-19,74.9393,85.528,150977300
2020-03-20,87.64,85.506,141427510
2020-03-23,86.72,86.858,82272745
2020-03-24,95.46,101,114475850
2020-03-25,109.05,107.85,106113725
2020-03-26,109.478,105.632,87110410
2020-03-27,101,102.872,71887040
2020-03-30,102.052,100.426,59990335
2020-03-31,100.25,104.8,88857425
2020-04-01,100.8,96.312,66765900
2020-04-02,96.206,90.894,99292135
2020-04-03,101.9,96.002,112810380
2020-04-06,102.24,103.248,74509180
2020-04-07,109,109.09,89598920
2020-04-08,110.84,109.768,63280120
2020-04-09,112.418,114.6,68250000
2020-04-13,118.032,130.19,112377105
2020-04-14,139.794,141.978,152882555
2020-04-15,148.4,145.966,117885005
2020-04-16,143.388,149.042,103289310
2020-04-17,154.456,150.778,65641185
2020-04-20,146.54,149.272,73732885
2020-04-21,146.024,137.344,101045465
2020-04-22,140.796,146.422,71124155
2020-04-23,145.52,141.126,66183485
2020-04-24,142.162,145.03,66188060
2020-04-27,147.522,159.75,103407210
2020-04-28,159.128,153.824,76109820
2020-04-29,158.034,160.102,81079910
2020-04-30,171.038,156.376,142359270
2020-05-01,151,140.264,162659035
2020-05-04,140.2,152.238,96185450
2020-05-05,157.958,153.642,84958280
2020-05-06,155.3,156.516,55616155
2020-05-07,155.442,156.008,57638430
2020-05-08,158.754,163.884,80650435
2020-05-11,158.102,162.258,82598005
2020-05-12,165.4,161.882,79534525
2020-05-13,164.166,158.192,95327455
2020-05-14,156,160.666,68410940
2020-05-15,158.07,159.834,52592140
2020-05-18,165.556,162.726,58490510
2020-05-19,163.034,161.602,48182610
2020-05-20,164.1,163.112,36546355
2020-05-21,163.2,165.52,61272920
2020-05-22,164.4347,163.376,49937375
2020-05-26,166.9,163.774,40448680
2020-05-27,164.172,164.046,57747650
2020-05-28,162.702,161.162,36378870
2020-05-29,161.75,167,59062445
2020-06-01,171.6,179.62,75426485
2020-06-02,178.94,176.312,67827980
2020-06-03,177.624,176.592,39747345
2020-06-04,177.976,172.876,44438565
2020-06-05,175.568,177.132,39059585
2020-06-08,183.8,189.984,70873635
2020-06-09,188.002,188.134,56940770
2020-06-10,198.376,205.01,92817065
2020-06-11,198.04,194.568,79582410
2020-06-12,196,187.056,83816870
2020-06-15,183.558,198.18,78485890
2020-06-16,202.37,196.426,70255390
2020-06-17,197.542,198.358,49454000
2020-06-18,200.6,200.792,48759680
2020-06-19,202.556,200.18,43398745
2020-06-22,199.99,198.864,31811750
2020-06-23,199.776,200.356,31826355
2020-06-24,198.822,192.17,54797965
2020-06-25,190.854,197.196,46272745
2020-06-26,198.956,191.948,44274540
2020-06-29,193.802,201.87,45132020
2020-06-30,201.3,215.962,84592505
2020-07-01,216.6,223.926,66634480
2020-07-02,244.296,241.732,86250575
2020-07-06,255.338,274.316,102849320
2020-07-07,281.002,277.972,107448305
2020-07-08,281,273.176,81556560
2020-07-09,279.398,278.856,58587990
2020-07-10,279.2,308.93,116687765
2020-07-13,331.8,299.412,194926810
2020-07-14,311.2,303.36,117090700
2020-07-15,308.6,309.202,81839145
2020-07-16,295.432,300.128,71503925
2020-07-17,302.69,300.168,46649860
2020-07-20,303.802,328.6,85606835
2020-07-21,327.986,313.672,80786400
2020-07-22,319.8,318.466,70805400
2020-07-23,335.79,302.614,121642520
2020-07-24,283.202,283.4,96983080
2020-07-27,287,307.92,80243345
2020-07-28,300.8,295.298,79043500
2020-07-29,300.2,299.822,47134465
2020-07-30,297.6,297.498,38105195
2020-07-31,303,286.152,61234800
2020-08-03,289.84,297,44046730
2020-08-04,299.002,297.4,42074950
2020-08-05,298.598,297.004,24890075
2020-08-06,298.166,297.916,29961565
2020-08-07,299.9073,290.542,44482100
2020-08-10,289.6,283.714,37611320
2020-08-11,279.2,274.878,43129170
2020-08-12,294,310.952,109494170
2020-08-13,322.2,324.2,102126540
2020-08-14,332.998,330.142,62888070
2020-08-17,335.4,367.128,101211615
2020-08-18,379.798,377.418,82372455
2020-08-19,373,375.706,61026655
2020-08-20,372.136,400.366,103058980
2020-08-21,408.952,409.996,107447795
2020-08-24,425.255,402.84,100318105
2020-08-25,394.978,404.668,53294465
2020-08-26,412,430.634,71196910
2020-08-27,436.092,447.75,118465215
2020-08-28,459.024,442.68,100405880
2020-08-31,444.61,498.32,118374406
2020-09-01,502.14,475.05,90119419
2020-09-02,478.99,447.37,96176128
2020-09-03,407.23,407,87596086
2020-09-04,402.81,418.32,110321885
2020-09-08,356,330.21,115465691
2020-09-09,356.6,366.28,79465769
2020-09-10,386.21,371.34,84930608
2020-09-11,381.94,372.72,60717459
2020-09-14,380.95,419.62,83020608
2020-09-15,436.56,449.76,97298228
2020-09-16,439.87,441.76,72546760
2020-09-17,415.6,423.43,76779163
2020-09-18,447.94,442.15,86406819
2020-09-21,453.13,449.39,109476800
2020-09-22,429.6,424.23,79580795
2020-09-23,405.16,380.36,95074176
2020-09-24,363.8,387.79,96561061
2020-09-25,393.47,407.34,67208459
2020-09-28,424.62,421.2,49719561
2020-09-29,416,419.07,50341404
2020-09-30,421.32,429.01,48145566
2020-10-01,440.76,448.16,50741454
2020-10-02,421.39,415.09,71430025
2020-10-05,423.35,425.68,44722786
2020-10-06,423.79,413.98,49146259
2020-10-07,419.87,425.3,43127709
2020-10-08,438.44,425.92,40421116
2020-10-09,430.13,434,28925656
2020-10-12,442,442.3,38791133
2020-10-13,443.35,446.65,34463665
2020-10-14,449.78,461.3,48045394
2020-10-15,450.31,448.88,35672354
2020-10-16,454.44,439.67,32775879
2020-10-19,446.24,430.83,36287843
2020-10-20,431.75,421.94,31656289
2020-10-21,422.7,422.64,32370461
2020-10-22,441.92,425.79,39993191
2020-10-23,421.84,420.63,33716980
2020-10-26,411.63,420.28,28239161
2020-10-27,423.76,424.68,22686506
2020-10-28,416.48,406.02,25451409
2020-10-29,409.96,410.83,22655308
2020-10-30,406.8954,388.04,42587639
2020-11-02,394,400.51,29021118
2020-11-03,409.73,423.9,34351715
2020-11-04,430.62,420.98,32143057
2020-11-05,428.3,438.09,28414523
2020-11-06,436.1,429.95,21706014
2020-11-09,439.5,421.26,34833025
2020-11-10,420.09,410.36,30284224
2020-11-11,416.45,417.13,17357722
2020-11-12,415.05,411.76,19940500
2020-11-13,410.85,408.5,19830351
2020-11-16,408.93,408.09,26838635
2020-11-17,460.17,441.61,61188281
2020-11-18,448.35,486.64,78044024
2020-11-19,492,499.27,62475346
2020-11-20,497.99,489.61,32911922
2020-11-23,503.5,521.85,50260304
2020-11-24,540.4,555.38,53648494
2020-11-25,550.06,574,48930162
2020-11-27,581.16,585.76,37561078
2020-11-30,602.21,567.6,63003052
2020-12-01,597.59,584.76,40382832
2020-12-02,556.44,568.82,47775653
2020-12-03,590.02,593.38,42552003
2020-12-04,591.01,599.04,29401314
2020-12-07,604.9197,641.76,56309709
2020-12-08,625.505,649.88,64265029
2020-12-09,653.69,604.48,71291190
2020-12-10,574.37,627.07,67083153
2020-12-11,615.01,609.99,46474974
2020-12-14,619,639.83,52040649
2020-12-15,643.28,633.25,45223559
2020-12-16,628.23,622.77,42095813
2020-12-17,628.19,655.9,56270144
2020-12-18,668.9,695,222126194
2020-12-21,666.24,649.86,58045264
2020-12-22,648,640.34,51861644
2020-12-23,632.2,645.98,33172972
2020-12-24,642.99,661.77,22865568
2020-12-28,674.51,663.69,32278561
2020-12-29,661,665.99,22910811
2020-12-30,672,694.78,42846021
2020-12-31,699.99,705.67,49649928
2021-01-04,719.46,729.77,48638189
2021-01-05,723.66,735.11,32245165
2021-01-06,758.49,755.98,44699965
2021-01-07,777.63,816.04,51498948
2021-01-08,856,880.02,75055528
2021-01-11,849.4,811.19,59554146
2021-01-12,831,849.44,46270720
2021-01-13,852.76,854.41,33312496
2021-01-14,843.39,845,31266327
2021-01-15,852,826.16,38777596
2021-01-19,837.8,844.55,25366980
2021-01-20,858.74,850.45,25665883
2021-01-21,855,844.99,20598133
2021-01-22,834.31,846.64,20066497
2021-01-25,855,880.8,41173397
2021-01-26,891.38,883.09,23131603
2021-01-27,870.35,864.16,27333955
2021-01-28,820,835.43,26378048
2021-01-29,830.0003,793.53,34990754
2021-02-01,814.29,839.81,25391385
2021-02-02,844.68,872.79,24346213
2021-02-03,877.02,854.69,18343510
2021-02-04,855,849.99,15812661
2021-02-05,845,852.23,18566637
2021-02-08,869.67,863.42,20161719
2021-02-09,855.12,849.46,15157651
2021-02-10,843.635,804.82,36216090
2021-02-11,812.44,811.66,21622753
2021-02-12,801.26,816.12,23768313
2021-02-16,818,796.22,19802324
2021-02-17,779.09,798.15,26078898
2021-02-18,780.9,787.38,17957058
2021-02-19,795,781.3,18958255
2021-02-22,762.64,714.5,37269716
2021-02-23,662.13,698.84,66606882
2021-02-24,711.85,742.02,36766950
2021-02-25,726.15,682.22,39023855
2021-02-26,700,675.5,41089173
2021-03-01,690.11,718.43,27136239
2021-03-02,718.28,686.44,23732158
2021-03-03,687.99,653.2,30207960
2021-03-04,655.8,621.44,65919530
2021-03-05,626.06,597.95,89396459
2021-03-08,600.55,563,51786958
2021-03-09,608.18,673.58,67523328
2021-03-10,700.3,668.06,60605672
2021-03-11,699.4,699.6,36253892
2021-03-12,670,693.73,33583840
2021-03-15,694.09,707.94,29423479
2021-03-16,703.35,676.88,32195672
2021-03-17,656.87,701.81,40372453
2021-03-18,684.29,653.16,33369022
2021-03-19,646.6,654.87,42893978
2021-03-22,684.59,670,39512221
2021-03-23,675.77,662.16,30491870
2021-03-24,667.91,630.27,33795174
2021-03-25,613,640.39,39224850
2021-03-26,641.87,618.71,33852827
2021-03-29,615.64,611.29,28636985
2021-03-30,601.75,635.62,39432359
